-1.5707963e+00 -3.1001000e+01
-1.5533430e+00 -3.1939000e+01
-1.5358897e+00 -3.0414000e+01
-1.5184364e+00 -2.9287000e+01
-1.5009832e+00 -2.9206000e+01
-1.4835299e+00 -2.8488000e+01
-1.4660766e+00 -2.7683000e+01
-1.4486233e+00 -2.6915000e+01
-1.4311700e+00 -2.6560000e+01
-1.4137167e+00 -2.6675000e+01
-1.3962634e+00 -2.5187000e+01
-1.3788101e+00 -2.4956000e+01
-1.3613568e+00 -2.4370000e+01
-1.3439035e+00 -2.4269000e+01
-1.3264502e+00 -2.4014000e+01
-1.3089969e+00 -2.5334000e+01
-1.2915436e+00 -2.4073000e+01
-1.2740904e+00 -2.4410000e+01
-1.2566371e+00 -2.3159000e+01
-1.2391838e+00 -2.3136000e+01
-1.2217305e+00 -2.2801000e+01
-1.2042772e+00 -2.2989000e+01
-1.1868239e+00 -2.3147000e+01
-1.1693706e+00 -2.3448000e+01
-1.1519173e+00 -2.4104000e+01
-1.1344640e+00 -2.5182000e+01
-1.1170107e+00 -2.7407000e+01
-1.0995574e+00 -2.8573000e+01
-1.0821041e+00 -3.1699000e+01
-1.0646508e+00 -3.3056000e+01
-1.0471976e+00 -4.1305000e+01
-1.0297443e+00 -3.6979000e+01
-1.0122910e+00 -2.8112000e+01
-9.9483767e-01 -2.4715000e+01
-9.7738438e-01 -2.2554000e+01
-9.5993109e-01 -2.0460000e+01
-9.4247780e-01 -1.8944000e+01
-9.2502450e-01 -1.7700000e+01
-9.0757121e-01 -1.7121000e+01
-8.9011792e-01 -1.5783000e+01
-8.7266463e-01 -1.5264000e+01
-8.5521133e-01 -1.4588000e+01
-8.3775804e-01 -1.3982000e+01
-8.2030475e-01 -1.4124000e+01
-8.0285146e-01 -1.4169000e+01
-7.8539816e-01 -1.3889000e+01
-7.6794487e-01 -1.4289000e+01
-7.5049158e-01 -1.4330000e+01
-7.3303829e-01 -1.3883000e+01
-7.1558499e-01 -1.3699000e+01
-6.9813170e-01 -1.3564000e+01
-6.8067841e-01 -1.4076000e+01
-6.6322512e-01 -1.4459000e+01
-6.4577182e-01 -1.5272000e+01
-6.2831853e-01 -1.5336000e+01
-6.1086524e-01 -1.5909000e+01
-5.9341195e-01 -1.6124000e+01
-5.7595865e-01 -1.6886000e+01
-5.5850536e-01 -1.7605000e+01
-5.4105207e-01 -1.8955000e+01
-5.2359878e-01 -2.0604000e+01
-5.0614548e-01 -2.2476000e+01
-4.8869219e-01 -2.4143000e+01
-4.7123890e-01 -2.5853000e+01
-4.5378561e-01 -2.7038000e+01
-4.3633231e-01 -2.3898000e+01
-4.1887902e-01 -2.1994000e+01
-4.0142573e-01 -1.9079000e+01
-3.8397244e-01 -1.7483000e+01
-3.6651914e-01 -1.6363000e+01
-3.4906585e-01 -1.5752000e+01
-3.3161256e-01 -1.6154000e+01
-3.1415927e-01 -1.6906000e+01
-2.9670597e-01 -1.8490000e+01
-2.7925268e-01 -2.0659000e+01
-2.6179939e-01 -2.1102000e+01
-2.4434610e-01 -2.0073000e+01
-2.2689280e-01 -1.7810000e+01
-2.0943951e-01 -1.5560000e+01
-1.9198622e-01 -1.4371000e+01
-1.7453293e-01 -1.3988000e+01
-1.5707963e-01 -1.4860000e+01
-1.3962634e-01 -1.5928000e+01
-1.2217305e-01 -1.8104000e+01
-1.0471976e-01 -1.9815000e+01
-8.7266463e-02 -1.9202000e+01
-6.9813170e-02 -1.7665000e+01
-5.2359878e-02 -1.6845000e+01
-3.4906585e-02 -1.6659000e+01
-1.7453293e-02 -1.7646000e+01
 0.0000000e+00 -1.9579000e+01
 1.7453293e-02 -2.1772000e+01
 3.4906585e-02 -2.0726000e+01
 5.2359878e-02 -1.8250000e+01
 6.9813170e-02 -1.6595000e+01
 8.7266463e-02 -1.5728000e+01
 1.0471976e-01 -1.5849000e+01
 1.2217305e-01 -1.6300000e+01
 1.3962634e-01 -1.8701000e+01
 1.5707963e-01 -2.0764000e+01
 1.7453293e-01 -2.0994000e+01
 1.9198622e-01 -2.0414000e+01
 2.0943951e-01 -1.8722000e+01
 2.2689280e-01 -1.8799000e+01
 2.4434610e-01 -1.8865000e+01
 2.6179939e-01 -2.1074000e+01
 2.7925268e-01 -2.5223000e+01
 2.9670597e-01 -2.9667000e+01
 3.1415927e-01 -2.9757000e+01
 3.3161256e-01 -2.4345000e+01
 3.4906585e-01 -2.3290000e+01
 3.6651914e-01 -2.2382000e+01
 3.8397244e-01 -2.4852000e+01
 4.0142573e-01 -3.0409000e+01
 4.1887902e-01 -4.2355000e+01
 4.3633231e-01 -2.8242000e+01
 4.5378561e-01 -2.1995000e+01
 4.7123890e-01 -1.9176000e+01
 4.8869219e-01 -1.7846000e+01
 5.0614548e-01 -1.7418000e+01
 5.2359878e-01 -1.7755000e+01
 5.4105207e-01 -1.9177000e+01
 5.5850536e-01 -2.1060000e+01
 5.7595865e-01 -2.3319000e+01
 5.9341195e-01 -2.1172000e+01
 6.1086524e-01 -1.8607000e+01
 6.2831853e-01 -1.6027000e+01
 6.4577182e-01 -1.3701000e+01
 6.6322512e-01 -1.2943000e+01
 6.8067841e-01 -1.2678000e+01
 6.9813170e-01 -1.2567000e+01
 7.1558499e-01 -1.2648000e+01
 7.3303829e-01 -1.3123000e+01
 7.5049158e-01 -1.4374000e+01
 7.6794487e-01 -1.5806000e+01
 7.8539816e-01 -1.7528000e+01
 8.0285146e-01 -1.9586000e+01
 8.2030475e-01 -2.2757000e+01
 8.3775804e-01 -2.5812000e+01
 8.5521133e-01 -2.9117000e+01
 8.7266463e-01 -2.7733000e+01
 8.9011792e-01 -2.6107000e+01
 9.0757121e-01 -2.3235000e+01
 9.2502450e-01 -2.1824000e+01
 9.4247780e-01 -1.9818000e+01
 9.5993109e-01 -1.8637000e+01
 9.7738438e-01 -1.7546000e+01
 9.9483767e-01 -1.7707000e+01
 1.0122910e+00 -1.6624000e+01
 1.0297443e+00 -1.6731000e+01
 1.0471976e+00 -1.6199000e+01
 1.0646508e+00 -1.6261000e+01
 1.0821041e+00 -1.6303000e+01
 1.0995574e+00 -1.6572000e+01
 1.1170107e+00 -1.6951000e+01
 1.1344640e+00 -1.7200000e+01
 1.1519173e+00 -1.7003000e+01
 1.1693706e+00 -1.7540000e+01
 1.1868239e+00 -1.8289000e+01
 1.2042772e+00 -1.9175000e+01
 1.2217305e+00 -1.9749000e+01
 1.2391838e+00 -2.0121000e+01
 1.2566371e+00 -2.1654000e+01
 1.2740904e+00 -2.2082000e+01
 1.2915436e+00 -2.2394000e+01
 1.3089969e+00 -2.3361000e+01
 1.3264502e+00 -2.4224000e+01
 1.3439035e+00 -2.4508000e+01
 1.3613568e+00 -2.5727000e+01
 1.3788101e+00 -2.6543000e+01
 1.3962634e+00 -2.8984000e+01
 1.4137167e+00 -2.8825000e+01
 1.4311700e+00 -2.9416000e+01
 1.4486233e+00 -3.0730000e+01
 1.4660766e+00 -3.1604000e+01
 1.4835299e+00 -3.6404000e+01
 1.5009832e+00 -3.4661000e+01
 1.5184364e+00 -3.6082000e+01
 1.5358897e+00 -4.0440000e+01
 1.5533430e+00 -3.6697000e+01
 1.5707963e+00 -4.2950000e+01
