%YAML 1.1
%TAG !u! tag:unity3d.com,2011:
--- !u!1045 &1
EditorBuildSettings:
  m_ObjectHideFlags: 0
  serializedVersion: 2
  m_Scenes:
  - enabled: 0
    path: 
    guid: 00000000000000000000000000000000
  - enabled: 0
    path: Assets/testScene.unity
    guid: 91b239d4a68468b4db1748a88db3635c
  - enabled: 0
    path: 
    guid: 00000000000000000000000000000000
  - enabled: 1
    path: Assets/hololensVersion.unity
    guid: 4050bf0fad4f0af4fac078a08100ba79
  m_configObjects: {}
