#  VP165 with radome, ECH 20181211 
#  Data normalized by ech_data_anal20181211.py
#  Angles (rad)  Intensity (dB)
0.000000000000000000e+00 -5.492324608447017198e+01
3.490658503988659095e-02 -5.494654360234085289e+01
6.981317007977318190e-02 -5.496158046792876917e+01
1.047197551196597659e-01 -5.502683488189386196e+01
1.396263401595463638e-01 -5.506489872588004886e+01
1.745329251994329478e-01 -5.513348565817649671e+01
2.094395102393195318e-01 -5.512545525229484156e+01
2.443460952792061436e-01 -5.522979911255767860e+01
2.792526803190927276e-01 -5.531401023756063751e+01
3.141592653589793116e-01 -5.545076988971020171e+01
3.490658503988658956e-01 -5.559030416810627173e+01
3.839724354387524796e-01 -5.571423080987119647e+01
4.188790204786390636e-01 -5.587272824405813765e+01
4.537856055185256476e-01 -5.601396522052014149e+01
4.886921905584122872e-01 -5.613629224676238039e+01
5.235987755982988157e-01 -5.632092062069687444e+01
5.585053606381854552e-01 -5.649628195972668010e+01
5.934119456780719837e-01 -5.670308133563635522e+01
6.283185307179586232e-01 -5.690145512889637303e+01
6.632251157578452627e-01 -5.706325052477541959e+01
6.981317007977317912e-01 -5.726632777838937471e+01
7.330382858376184307e-01 -5.749869948692354171e+01
7.679448708775049592e-01 -5.775575130397631085e+01
8.028514559173914877e-01 -5.800266818528638169e+01
8.377580409572781273e-01 -5.824924701412563621e+01
8.726646259971647668e-01 -5.851262735968134621e+01
9.075712110370512953e-01 -5.880793358649992797e+01
9.424777960769379348e-01 -5.911731043189024604e+01
9.773843811168245743e-01 -5.931977438672480218e+01
1.012290966156711214e+00 -5.956426088716171563e+01
1.047197551196597631e+00 -5.981295361581715042e+01
1.082104136236484271e+00 -5.999203504092444916e+01
1.117010721276370910e+00 -6.041929706673607114e+01
1.151917306316257328e+00 -6.065107958236269070e+01
1.186823891356143967e+00 -6.094498170222826161e+01
1.221730476396030607e+00 -6.121131407494341659e+01
1.256637061435917246e+00 -6.148441193653907533e+01
1.291543646475803886e+00 -6.169478004243829616e+01
1.326450231515690525e+00 -6.198382593532440410e+01
1.361356816555577165e+00 -6.228453945378187484e+01
1.396263401595463582e+00 -6.258089392096259473e+01
1.431169986635350222e+00 -6.288018239895912131e+01
1.466076571675236861e+00 -6.319034551283750289e+01
1.500983156715123501e+00 -6.335154458482315931e+01
1.535889741755009918e+00 -6.370377205000588106e+01
1.570796326794896558e+00 -6.388278657901384605e+01
1.605702911834782975e+00 -6.424208516593478180e+01
1.640609496874669837e+00 -6.461638633933836218e+01
1.675516081914556255e+00 -6.501084790731920293e+01
1.710422666954442672e+00 -6.531001897628495101e+01
1.745329251994329534e+00 -6.520211648599985210e+01
1.780235837034215951e+00 -6.545543398907479116e+01
1.815142422074102591e+00 -6.580185139523888438e+01
1.850049007113989230e+00 -6.641016175186977932e+01
1.884955592153875870e+00 -6.669621851532886581e+01
1.919862177193762509e+00 -6.686764055702801102e+01
1.954768762233649149e+00 -6.723861655385721292e+01
1.989675347273535566e+00 -6.737120961127168073e+01
2.024581932313422428e+00 -6.769023759354072922e+01
2.059488517353308623e+00 -6.812016467293213395e+01
2.094395102393195263e+00 -6.832540225549395529e+01
2.129301687433081902e+00 -6.848560821531827969e+01
2.164208272472968542e+00 -6.855946901773273794e+01
2.199114857512855181e+00 -6.858781072729085793e+01
2.234021442552741821e+00 -6.859052006548434122e+01
2.268928027592628460e+00 -6.843943002457245939e+01
2.303834612632514656e+00 -6.840993656310257620e+01
2.338741197672401739e+00 -6.850497973886605507e+01
2.373647782712287935e+00 -6.862125437380412052e+01
2.408554367752175018e+00 -6.868087665520037888e+01
2.443460952792061214e+00 -6.860141831401480772e+01
2.478367537831947853e+00 -6.843145283925097999e+01
2.513274122871834493e+00 -6.846678962998490192e+01
2.548180707911721132e+00 -6.853359700529678378e+01
2.583087292951607772e+00 -6.854043809409918708e+01
2.617993877991494411e+00 -6.848100198219637491e+01
2.652900463031381051e+00 -6.861378840379954624e+01
2.687807048071267246e+00 -6.867138502570662695e+01
2.722713633111154330e+00 -6.899558849700136420e+01
2.757620218151040525e+00 -6.934789575035510723e+01
2.792526803190927165e+00 -6.962617341568312668e+01
2.827433388230813804e+00 -7.013856279241598202e+01
2.862339973270700444e+00 -7.082620877509401680e+01
2.897246558310587083e+00 -7.135148135368200428e+01
2.932153143350473723e+00 -7.213240828161605123e+01
2.967059728390359918e+00 -7.269221639721055794e+01
3.001966313430247002e+00 -7.366498562910868486e+01
3.036872898470133197e+00 -7.438380537819344340e+01
3.071779483510019837e+00 -7.493374601014966174e+01
3.106686068549906476e+00 -7.567951324999826568e+01
3.141592653589793116e+00 -7.610793826837125664e+01
3.176499238629679756e+00 -7.657514799619536916e+01
3.211405823669565951e+00 -7.571874410194888583e+01
3.246312408709453035e+00 -7.479809972976777033e+01
3.281218993749339674e+00 -7.376290522948563932e+01
3.316125578789226314e+00 -7.272344510891903724e+01
3.351032163829112509e+00 -7.177870384703487616e+01
3.385938748868999149e+00 -7.130849003977269263e+01
3.420845333908885344e+00 -7.071430792867664650e+01
3.455751918948772872e+00 -7.011239240739924128e+01
3.490658503988659067e+00 -6.955715317236244744e+01
3.525565089028545707e+00 -6.914644188101223676e+01
3.560471674068431902e+00 -6.868354239644943959e+01
3.595378259108318542e+00 -6.839817772339829105e+01
3.630284844148205181e+00 -6.808287214763362272e+01
3.665191429188092265e+00 -6.785621482002804328e+01
3.700098014227978460e+00 -6.752910088979008663e+01
3.735004599267865100e+00 -6.745373176189264086e+01
3.769911184307751739e+00 -6.719748345709365367e+01
3.804817769347637935e+00 -6.699912601356953701e+01
3.839724354387525018e+00 -6.697861172713786004e+01
3.874630939427411658e+00 -6.700494392825680734e+01
3.909537524467298297e+00 -6.697265132482066008e+01
3.944444109507184493e+00 -6.694230465795060070e+01
3.979350694547071132e+00 -6.683652761562642297e+01
4.014257279586957772e+00 -6.695978456784600041e+01
4.049163864626844855e+00 -6.700634731497692087e+01
4.084070449666731051e+00 -6.695344624811292533e+01
4.118977034706617246e+00 -6.704950366291093644e+01
4.153883619746504330e+00 -6.715481755119367335e+01
4.188790204786390525e+00 -6.702962811302523960e+01
4.223696789826277609e+00 -6.699800461872574431e+01
4.258603374866163804e+00 -6.676229958882171900e+01
4.293509959906050888e+00 -6.659251255053990803e+01
4.328416544945937083e+00 -6.632232462754603830e+01
4.363323129985823279e+00 -6.625276636487026849e+01
4.398229715025710362e+00 -6.613194253554199520e+01
4.433136300065597446e+00 -6.580161889633127714e+01
4.468042885105483641e+00 -6.560263808075798408e+01
4.502949470145369837e+00 -6.532903562869394420e+01
4.537856055185256920e+00 -6.505184529949727334e+01
4.572762640225143116e+00 -6.483892138655755844e+01
4.607669225265029311e+00 -6.463313893541103994e+01
4.642575810304916395e+00 -6.432655935580284279e+01
4.677482395344803479e+00 -6.400740849981882263e+01
4.712388980384689674e+00 -6.377128329517734784e+01
4.747295565424575869e+00 -6.356243547682070272e+01
4.782202150464462953e+00 -6.334007242719955855e+01
4.817108735504350037e+00 -6.314425151939590819e+01
4.852015320544236232e+00 -6.288955774028145385e+01
4.886921905584122428e+00 -6.263299550294505735e+01
4.921828490624009511e+00 -6.245509290980518813e+01
4.956735075663895707e+00 -6.215172960375488742e+01
4.991641660703781902e+00 -6.188736055527071755e+01
5.026548245743668986e+00 -6.158430465362784645e+01
5.061454830783556069e+00 -6.125655490088568200e+01
5.096361415823442265e+00 -6.106252832487959381e+01
5.131268000863328460e+00 -6.082539016119349640e+01
5.166174585903215544e+00 -6.054147356373971434e+01
5.201081170943101739e+00 -6.026451722061622007e+01
5.235987755982988823e+00 -6.004243469500481467e+01
5.270894341022875018e+00 -5.972849626605067641e+01
5.305800926062762102e+00 -5.946830617147954001e+01
5.340707511102648297e+00 -5.916576511348508660e+01
5.375614096142534493e+00 -5.887111145825173253e+01
5.410520681182421576e+00 -5.860426135167568873e+01
5.445427266222308660e+00 -5.830329887080792872e+01
5.480333851262194855e+00 -5.806532740054731079e+01
5.515240436302081051e+00 -5.781934345820747012e+01
5.550147021341967246e+00 -5.760272942212836256e+01
5.585053606381854330e+00 -5.736940760218647739e+01
5.619960191421741413e+00 -5.709083865461786900e+01
5.654866776461627609e+00 -5.692965382906396599e+01
5.689773361501513804e+00 -5.668047615497221869e+01
5.724679946541400888e+00 -5.642053696986936018e+01
5.759586531581287083e+00 -5.624685001110871951e+01
5.794493116621174167e+00 -5.605799552519179230e+01
5.829399701661060362e+00 -5.588727189692767894e+01
5.864306286700947446e+00 -5.574600798869130358e+01
5.899212871740833641e+00 -5.555741203952290874e+01
5.934119456780719837e+00 -5.539879476380617973e+01
5.969026041820606920e+00 -5.520865118700636742e+01
6.003932626860494004e+00 -5.509203308976981361e+01
6.038839211900380199e+00 -5.497005827635335606e+01
6.073745796940266395e+00 -5.495210330127696352e+01
6.108652381980153478e+00 -5.489405317787031180e+01
6.143558967020039674e+00 -5.483101453367104483e+01
6.178465552059925869e+00 -5.480919869111218645e+01
6.213372137099812953e+00 -5.478473573057932100e+01
6.248278722139700037e+00 -5.478395240835283175e+01
6.283185307179586232e+00 -5.480509937840860601e+01
