# Blender v2.79 (sub 0) OBJ File: ''
# www.blender.org
mtllib untitled.mtl
o Patch_Antenna_Modell.007
v -44.375000 0.000000 -44.150002
v -44.375000 0.000000 44.150002
v 0.000000 0.000000 44.150002
v 44.375000 0.000000 44.150002
v 0.000000 0.000000 -44.150002
v 40.875000 0.000000 5.000000
v 40.875000 0.000000 -5.000000
v 44.375000 0.000000 -44.150002
v 44.375000 0.000000 -5.000000
v 44.375000 0.000000 5.000000
v 42.775002 1.600000 5.000000
v 42.775002 1.600000 -5.000000
v 44.375000 3.500000 5.000000
v 42.775002 3.500000 5.000000
v 44.375000 3.500000 -5.000000
v 42.775002 3.500000 -5.000000
vn 0.0000 -1.0000 0.0000
vn 0.0000 0.0000 -1.0000
vn 0.0000 0.0000 1.0000
vn 1.0000 0.0000 0.0000
usemtl None
s off
f 5//1 3//1 2//1
f 4//1 3//1 6//1
f 3//1 5//1 7//1
f 7//1 6//1 3//1
f 8//1 9//1 7//1
f 7//1 5//1 8//1
f 6//1 10//1 4//1
f 2//1 1//1 5//1
f 13//2 10//2 11//2
f 11//2 14//2 13//2
f 7//3 9//3 12//3
f 15//3 16//3 12//3
f 12//3 9//3 15//3
f 13//1 14//1 16//1
f 16//1 15//1 13//1
f 4//4 10//4 13//4
o Patch_Antenna_Modell.006
v 42.775002 14.534076 -42.549999
v -42.775002 14.534076 -42.549999
v -42.775002 1.600000 -42.549999
v 42.775002 1.600000 -42.549999
vn 0.0000 0.0000 1.0000
usemtl None
s off
f 20//5 17//5 18//5
f 18//5 19//5 20//5
o Patch_Antenna_Modell.005
v -42.775002 14.534076 42.549999
v 42.775002 14.534076 42.549999
v -42.775002 1.600000 42.549999
v 42.775002 1.600000 42.549999
vn 0.0000 0.0000 -1.0000
usemtl None
s off
f 21//6 22//6 24//6
f 24//6 23//6 21//6
o Patch_Antenna_Modell.004
v 36.000000 10.000000 0.500000
v 36.000000 9.750000 0.433013
v 36.000000 9.566987 0.250000
v 36.000000 9.500000 0.000000
v 36.000000 10.500000 -0.000000
v 36.000000 10.433013 0.250000
v 36.000000 10.250000 0.433013
v 36.000000 9.566987 -0.250000
v 36.000000 9.750000 -0.433013
v 36.000000 10.000000 -0.500000
v 36.000000 10.250000 -0.433013
v 36.000000 10.433013 -0.250000
v 44.375000 10.000000 0.500000
v 44.375000 9.750000 0.433013
v 44.375000 9.566987 0.250000
v 44.375000 9.500000 0.000000
v 44.375000 10.500000 -0.000000
v 44.375000 10.433013 0.250000
v 44.375000 10.250000 0.433013
v 44.375000 9.566987 -0.250000
v 44.375000 9.750000 -0.433013
v 44.375000 10.000000 -0.500000
v 44.375000 10.250000 -0.433013
v 44.375000 10.433013 -0.250000
vn 0.0000 -0.2588 0.9659
vn 0.0000 -0.7071 0.7071
vn 0.0000 -0.9659 0.2588
vn 0.0000 0.9659 0.2588
vn 0.0000 0.7071 0.7071
vn 0.0000 0.2588 0.9659
vn 0.0000 -0.9659 -0.2588
vn 0.0000 -0.7071 -0.7071
vn 0.0000 -0.2588 -0.9659
vn 0.0000 0.2588 -0.9659
vn 0.0000 0.7071 -0.7071
vn 0.0000 0.9659 -0.2588
vn 1.0000 0.0000 0.0000
usemtl None
s off
f 37//7 25//7 26//7
f 38//8 26//8 27//8
f 39//9 27//9 28//9
f 28//9 40//9 39//9
f 27//8 39//8 38//8
f 26//7 38//7 37//7
f 41//10 29//10 30//10
f 42//11 30//11 31//11
f 43//12 31//12 25//12
f 25//12 37//12 43//12
f 31//11 43//11 42//11
f 30//10 42//10 41//10
f 40//13 28//13 32//13
f 44//14 32//14 33//14
f 45//15 33//15 34//15
f 34//15 46//15 45//15
f 33//14 45//14 44//14
f 32//13 44//13 40//13
f 46//16 34//16 35//16
f 47//17 35//17 36//17
f 48//18 36//18 29//18
f 29//18 41//18 48//18
f 36//17 48//17 47//17
f 35//16 47//16 46//16
f 47//19 44//19 45//19
f 43//19 39//19 40//19
f 39//19 43//19 37//19
f 44//19 48//19 41//19
f 45//19 46//19 47//19
f 37//19 38//19 39//19
f 47//19 48//19 44//19
f 44//19 42//19 43//19
f 40//19 44//19 43//19
f 41//19 42//19 44//19
o Patch_Antenna_Modell.003
v 40.875000 0.000000 5.000000
v 40.875000 0.000000 -5.000000
v 44.375000 0.000000 5.000000
v -42.775002 1.600000 -42.549999
v -42.775002 1.600000 42.549999
v 42.775002 1.600000 42.549999
v 42.775002 1.600000 -42.549999
v 40.875000 1.600000 -5.000000
v 40.875000 1.600000 5.000000
v 42.775002 1.600000 5.000000
v 42.775002 1.600000 -5.000000
vn 0.0000 1.0000 -0.0000
vn 1.0000 0.0000 0.0000
vn 0.0000 0.0000 -1.0000
vn 0.0000 0.0000 1.0000
usemtl None
s off
f 55//20 52//20 56//20
f 52//20 53//20 57//20
f 57//20 56//20 52//20
f 54//20 58//20 57//20
f 57//20 53//20 54//20
f 56//20 59//20 55//20
f 56//21 57//21 49//21
f 49//21 50//21 56//21
f 49//22 57//22 58//22
f 58//22 51//22 49//22
f 59//23 56//23 50//23
o Patch_Antenna_Modell.002
v -24.200001 12.100000 -27.975000
v -24.200001 11.550000 -27.975000
v -24.200001 11.550000 27.975000
v -24.200001 12.100000 27.975000
v 27.799999 11.550000 27.975000
v 27.799999 12.100000 27.975000
v 27.799999 11.550000 -6.500000
v 27.799999 11.550000 6.500000
v 27.799999 11.550000 -27.975000
v 27.799999 12.100000 6.500000
v 27.799999 12.100000 -6.500000
v 27.799999 12.100000 -27.975000
v 36.000000 11.550000 6.500000
v 36.000000 12.100000 6.500000
v 35.450001 11.550000 3.450000
v 35.450001 11.550000 -3.450000
v 36.000000 11.550000 -6.500000
v 36.000000 11.550000 -3.450000
v 36.000000 11.550000 3.450000
v 36.000000 12.100000 -6.500000
v 35.450001 12.100000 -3.450000
v 35.450001 12.100000 3.450000
v 36.000000 12.100000 3.450000
v 36.000000 12.100000 -3.450000
v 35.450001 7.700000 -3.450000
v 35.450001 9.750000 -0.433013
v 35.450001 10.000000 -0.500000
v 35.450001 7.700000 3.450000
v 35.450001 10.000000 0.500000
v 35.450001 10.500000 -0.000000
v 35.450001 9.500000 0.000000
v 35.450001 9.566987 -0.250000
v 35.450001 9.566987 0.250000
v 35.450001 10.250000 0.433013
v 35.450001 10.433013 0.250000
v 35.450001 10.250000 -0.433013
v 35.450001 10.433013 -0.250000
v 35.450001 9.750000 0.433013
v 36.000000 7.700000 3.450000
v 36.000000 7.700000 -3.450000
v 36.000000 10.000000 0.500000
v 36.000000 9.750000 0.433013
v 36.000000 9.566987 0.250000
v 36.000000 9.500000 0.000000
v 36.000000 10.500000 -0.000000
v 36.000000 10.433013 0.250000
v 36.000000 10.250000 0.433013
v 36.000000 9.566987 -0.250000
v 36.000000 9.750000 -0.433013
v 36.000000 10.000000 -0.500000
v 36.000000 10.250000 -0.433013
v 36.000000 10.433013 -0.250000
vn -1.0000 0.0000 0.0000
vn 0.0000 0.0000 1.0000
vn 0.0000 -1.0000 0.0000
vn 0.0000 1.0000 0.0000
vn 0.0000 0.0000 -1.0000
vn 1.0000 0.0000 0.0000
usemtl None
s off
f 60//24 61//24 62//24
f 62//24 63//24 60//24
f 63//25 62//25 64//25
f 64//25 65//25 63//25
f 62//26 61//26 66//26
f 66//26 67//26 62//26
f 61//26 68//26 66//26
f 67//26 64//26 62//26
f 60//27 63//27 69//27
f 69//27 70//27 60//27
f 63//27 65//27 69//27
f 70//27 71//27 60//27
f 71//28 68//28 61//28
f 61//28 60//28 71//28
f 65//29 64//29 67//29
f 67//29 69//29 65//29
f 70//29 69//29 67//29
f 67//29 66//29 70//29
f 69//25 67//25 72//25
f 72//25 73//25 69//25
f 72//26 67//26 74//26
f 67//26 66//26 75//26
f 75//26 74//26 67//26
f 76//26 77//26 75//26
f 75//26 66//26 76//26
f 79//27 70//27 80//27
f 69//27 81//27 80//27
f 80//27 70//27 69//27
f 73//27 82//27 81//27
f 81//27 69//27 73//27
f 80//27 83//27 79//27
f 71//29 70//29 66//29
f 66//29 68//29 71//29
f 79//28 76//28 66//28
f 66//28 70//28 79//28
f 84//24 85//24 86//24
f 87//24 74//24 88//24
f 74//24 75//24 89//24
f 86//24 75//24 84//24
f 84//24 90//24 91//24
f 87//24 92//24 90//24
f 74//24 93//24 88//24
f 89//24 94//24 74//24
f 75//24 95//24 96//24
f 91//24 85//24 84//24
f 87//24 97//24 92//24
f 94//24 93//24 74//24
f 86//24 95//24 75//24
f 88//24 97//24 87//24
f 90//24 84//24 87//24
f 96//24 89//24 75//24
f 87//25 98//25 78//25
f 78//25 74//25 87//25
f 75//24 74//24 81//24
f 81//24 80//24 75//24
f 75//26 77//26 78//26
f 78//26 74//26 75//26
f 83//27 80//27 81//27
f 81//27 82//27 83//27
f 96//24 86//24 85//24
f 92//24 88//24 93//24
f 96//24 91//24 90//24
f 96//24 95//24 86//24
f 92//24 94//24 89//24
f 85//24 91//24 96//24
f 93//24 94//24 92//24
f 89//24 96//24 92//24
f 90//24 92//24 96//24
f 84//28 75//28 77//28
f 77//28 99//28 84//28
f 80//28 83//28 77//28
f 77//28 75//28 80//28
f 73//29 72//29 78//29
f 78//29 82//29 73//29
f 99//29 77//29 109//29
f 98//29 101//29 100//29
f 99//29 108//29 107//29
f 77//29 110//29 109//29
f 77//29 78//29 104//29
f 78//29 106//29 105//29
f 100//29 78//29 98//29
f 98//29 99//29 103//29
f 109//29 108//29 99//29
f 104//29 111//29 77//29
f 100//29 106//29 78//29
f 103//29 102//29 98//29
f 111//29 110//29 77//29
f 102//29 101//29 98//29
f 105//29 104//29 78//29
f 107//29 103//29 99//29
f 82//29 78//29 77//29
f 77//29 83//29 82//29
f 79//29 83//29 77//29
f 77//29 76//29 79//29
o Patch_Antenna_Modell.001
v -44.375000 13.167293 44.150002
v -44.375000 13.167293 -44.150002
v -44.375000 0.000000 -44.150002
v -44.375000 13.953127 -43.554359
v -44.375000 18.499346 -10.982516
v -44.375000 25.795231 -0.905559
v -44.375000 25.627254 -5.447705
v -44.375000 25.722961 3.639022
v -44.375000 24.070026 17.161419
v -44.375000 24.859156 12.685173
v -44.375000 25.410645 8.173524
v -44.375000 23.045565 21.589325
v -44.375000 19.814043 -31.521189
v -44.375000 18.036640 -35.704491
v -44.375000 22.693892 -22.902309
v -44.375000 21.367903 -27.249828
v -44.375000 16.040655 -39.788055
v -44.375000 25.219498 -9.974629
v -44.375000 24.573099 -14.473680
v -44.375000 23.689863 -18.932293
v -44.375000 19.646826 31.942324
v -44.375000 21.223183 27.679186
v -44.375000 15.829927 40.189190
v -44.375000 17.847490 36.116016
v -44.375000 13.599986 44.150002
v -44.375000 22.572060 23.338715
v -44.375000 13.599986 -44.150002
v -44.375000 0.000000 44.150002
v 0.000000 0.000000 44.150002
v 44.375000 0.000000 44.150002
v 44.375000 13.167293 44.150002
v 0.000000 13.599986 44.150002
v 44.375000 13.599986 44.150002
v 0.000000 0.000000 -44.150002
v 40.875000 0.000000 5.000000
v 40.875000 0.000000 -5.000000
v 44.375000 0.000000 -44.150002
v 44.375000 0.000000 -5.000000
v 44.375000 0.000000 5.000000
v 44.375000 13.953127 -43.554359
v 44.375000 13.599986 -44.150002
v 0.000000 13.599986 -44.150002
v -42.775002 15.829927 40.189190
v -42.775002 17.847490 36.116016
v -42.775002 19.646826 31.942324
v -42.775002 21.223183 27.679186
v -42.775002 22.572060 23.338715
v -42.775002 23.045565 21.589325
v -42.775002 24.070026 17.161419
v -42.775002 24.859156 12.685173
v -42.775002 25.410645 8.173524
v -42.775002 25.722961 3.639022
v -42.775002 25.795231 -0.905559
v -42.775002 25.627254 -5.447705
v -42.775002 25.219498 -9.974629
v -42.775002 24.573099 -14.473680
v -42.775002 23.689863 -18.932293
v -42.775002 22.693892 -22.902309
v -42.775002 21.367903 -27.249828
v -42.775002 19.814043 -31.521189
v -42.775002 18.036640 -35.704491
v -42.775002 16.040655 -39.788055
v 44.375000 16.040655 -39.788055
v 42.775002 14.534076 -42.549999
v -42.775002 14.534076 -42.549999
v 44.375000 18.036640 -35.704491
v 42.775002 16.040655 -39.788055
v 42.775002 18.036640 -35.704491
v 42.775002 19.814043 -31.521189
v 44.375000 21.367903 -27.249828
v 44.375000 19.814043 -31.521189
v 42.775002 21.367903 -27.249828
v 42.775002 22.693892 -22.902309
v 42.775002 23.689863 -18.932293
v 44.375000 23.689863 -18.932293
v 44.375000 22.693892 -22.902309
v 44.375000 24.573099 -14.473680
v 42.775002 24.573099 -14.473680
v 42.775002 25.219498 -9.974629
v 44.375000 25.219498 -9.974629
v 42.775002 25.627254 -5.447705
v 42.775002 25.795231 -0.905559
v 44.375000 25.795231 -0.905559
v 44.375000 25.627254 -5.447705
v 42.775002 25.722961 3.639022
v 44.375000 25.722961 3.639022
v 42.775002 25.410645 8.173524
v 44.375000 25.410645 8.173524
v 42.775002 24.859156 12.685173
v 44.375000 24.859156 12.685173
v 42.775002 24.070026 17.161419
v 42.775002 23.045565 21.589325
v 44.375000 23.045565 21.589325
v 44.375000 24.070026 17.161419
v 42.775002 22.572060 23.338715
v 42.775002 21.223183 27.679186
v 44.375000 21.223183 27.679186
v 42.775002 19.646826 31.942324
v 44.375000 17.847490 36.116016
v 44.375000 19.646826 31.942324
v 42.775002 17.847490 36.116016
v 42.775002 15.829927 40.189190
v -42.775002 14.534076 42.549999
v 42.775002 14.534076 42.549999
v 44.375000 15.829927 40.189190
v 44.375000 22.572060 23.338715
v 44.375000 13.167293 -44.150002
v -42.775002 1.600000 -42.549999
v -42.775002 1.600000 42.549999
v 42.775002 1.600000 42.549999
v 42.775002 1.600000 -42.549999
v 40.875000 1.600000 -5.000000
v 40.875000 1.600000 5.000000
v 42.775002 1.600000 5.000000
v 42.775002 1.600000 -5.000000
v 44.375000 3.500000 5.000000
v 42.775002 3.500000 5.000000
v 44.375000 3.500000 -5.000000
v 42.775002 3.500000 -5.000000
v 42.775002 7.004172 0.973404
v 42.775002 6.850000 0.000000
v 42.775002 7.004172 -0.973404
v 42.775002 7.451596 1.851524
v 42.775002 11.851523 -2.548404
v 42.775002 12.548404 -1.851524
v 42.775002 9.026596 -2.995828
v 42.775002 9.026596 2.995828
v 42.775002 10.973404 2.995828
v 42.775002 12.995828 0.973404
v 42.775002 12.995828 -0.973404
v 42.775002 10.973404 -2.995828
v 42.775002 8.148477 -2.548404
v 42.775002 7.451596 -1.851524
v 42.775002 8.148477 2.548404
v 42.775002 12.548404 1.851524
v 42.775002 13.150000 -0.000000
v 42.775002 10.000000 -3.150000
v 42.775002 11.851523 2.548404
v 42.775002 10.000000 3.150000
v 44.375000 7.004172 0.973404
v 44.375000 6.850000 0.000000
v 44.375000 7.451596 1.851524
v 44.375000 8.148477 2.548404
v 44.375000 9.026596 2.995828
v 44.375000 10.000000 3.150000
v 44.375000 10.973404 2.995828
v 44.375000 11.851523 2.548404
v 44.375000 12.548404 1.851524
v 44.375000 12.995828 0.973404
v 44.375000 13.150000 -0.000000
v 44.375000 9.026596 -2.995828
v 44.375000 10.000000 -3.150000
v 44.375000 8.148477 -2.548404
v 44.375000 7.451596 -1.851524
v 44.375000 7.004172 -0.973404
v 44.375000 12.995828 -0.973404
v 44.375000 12.548404 -1.851524
v 44.375000 11.851523 -2.548404
v 44.375000 10.973404 -2.995828
v 44.375000 18.499346 -10.982516
v -24.200001 12.100000 -27.975000
v -24.200001 11.550000 -27.975000
v -24.200001 11.550000 27.975000
v -24.200001 12.100000 27.975000
v 27.799999 11.550000 27.975000
v 27.799999 12.100000 27.975000
v 27.799999 11.550000 -6.500000
v 27.799999 11.550000 6.500000
v 27.799999 11.550000 -27.975000
v 27.799999 12.100000 6.500000
v 27.799999 12.100000 -6.500000
v 27.799999 12.100000 -27.975000
v 36.000000 11.550000 6.500000
v 36.000000 12.100000 6.500000
v 35.450001 11.550000 3.450000
v 35.450001 11.550000 -3.450000
v 36.000000 11.550000 -6.500000
v 36.000000 11.550000 -3.450000
v 36.000000 11.550000 3.450000
v 36.000000 12.100000 -6.500000
v 35.450001 12.100000 -3.450000
v 35.450001 12.100000 3.450000
v 36.000000 12.100000 3.450000
v 36.000000 12.100000 -3.450000
v 35.450001 7.700000 -3.450000
v 35.450001 9.750000 -0.433013
v 35.450001 10.000000 -0.500000
v 35.450001 7.700000 3.450000
v 35.450001 10.000000 0.500000
v 35.450001 10.500000 -0.000000
v 35.450001 9.500000 0.000000
v 35.450001 9.566987 -0.250000
v 35.450001 9.566987 0.250000
v 35.450001 10.250000 0.433013
v 35.450001 10.433013 0.250000
v 35.450001 10.250000 -0.433013
v 35.450001 10.433013 -0.250000
v 35.450001 9.750000 0.433013
v 36.000000 7.700000 3.450000
v 36.000000 7.700000 -3.450000
v 36.000000 10.000000 0.500000
v 36.000000 9.750000 0.433013
v 36.000000 9.566987 0.250000
v 36.000000 9.500000 0.000000
v 36.000000 10.500000 -0.000000
v 36.000000 10.433013 0.250000
v 36.000000 10.250000 0.433013
v 36.000000 9.566987 -0.250000
v 36.000000 9.750000 -0.433013
v 36.000000 10.000000 -0.500000
v 36.000000 10.250000 -0.433013
v 36.000000 10.433013 -0.250000
v 44.375000 10.000000 0.500000
v 44.375000 9.750000 0.433013
v 44.375000 9.566987 0.250000
v 44.375000 9.500000 0.000000
v 44.375000 10.500000 -0.000000
v 44.375000 10.433013 0.250000
v 44.375000 10.250000 0.433013
v 44.375000 9.566987 -0.250000
v 44.375000 9.750000 -0.433013
v 44.375000 10.000000 -0.500000
v 44.375000 10.250000 -0.433013
v 44.375000 10.433013 -0.250000
vn -1.0000 0.0000 0.0000
vn 0.0000 0.0000 1.0000
vn 0.0000 -1.0000 0.0000
vn 0.0000 0.8602 -0.5100
vn 0.0000 0.8961 0.4439
vn 0.0000 0.9183 0.3959
vn 0.0000 0.9379 0.3468
vn 0.0000 0.9549 0.2968
vn 0.0000 0.9653 0.2613
vn 0.0000 0.9743 0.2254
vn 0.0000 0.9848 0.1736
vn 0.0000 0.9926 0.1213
vn 0.0000 0.9976 0.0687
vn 0.0000 0.9999 0.0159
vn 0.0000 0.9993 -0.0370
vn 0.0000 0.9960 -0.0897
vn 0.0000 0.9898 -0.1422
vn 0.0000 0.9809 -0.1943
vn 0.0000 0.9699 -0.2433
vn 0.0000 0.9565 -0.2917
vn 0.0000 0.9397 -0.3419
vn 0.0000 0.9204 -0.3910
vn 0.0000 0.8984 -0.4391
vn 0.0133 0.8746 -0.4847
vn 0.0000 0.8656 -0.5007
vn 0.0000 0.8779 -0.4789
vn -0.0133 0.8746 -0.4847
vn -0.0181 0.8712 0.4905
vn 0.0000 0.8636 0.5042
vn 0.0000 0.8766 0.4812
vn 0.0181 0.8712 0.4905
vn 0.0000 0.9550 0.2968
vn -0.0000 0.0000 -1.0000
vn 1.0000 -0.0000 0.0000
vn 0.0000 1.0000 -0.0000
vn 0.0000 0.9877 -0.1564
vn 0.0000 0.8910 -0.4540
vn 0.0000 0.7071 -0.7071
vn 0.0000 0.4540 -0.8910
vn 0.0000 0.1564 -0.9877
vn 0.0000 -0.1564 -0.9877
vn 0.0000 -0.4540 -0.8910
vn 0.0000 -0.7071 -0.7071
vn 0.0000 -0.8910 -0.4540
vn 0.0000 -0.9877 -0.1564
vn 0.0000 0.1564 0.9877
vn 0.0000 0.4540 0.8910
vn 0.0000 0.7071 0.7071
vn 0.0000 0.8910 0.4540
vn 0.0000 0.9877 0.1564
vn 0.0000 -0.9877 0.1564
vn 0.0000 -0.8910 0.4540
vn 0.0000 -0.7071 0.7071
vn 0.0000 -0.4540 0.8910
vn 0.0000 -0.1564 0.9877
vn 0.0000 -0.2588 0.9659
vn 0.0000 -0.9659 0.2588
vn 0.0000 0.9659 0.2588
vn 0.0000 0.2588 0.9659
vn 0.0000 -0.9659 -0.2588
vn 0.0000 -0.2588 -0.9659
vn 0.0000 0.2588 -0.9659
vn 0.0000 0.9659 -0.2588
usemtl None
s off
f 112//30 113//30 114//30
f 113//30 112//30 115//30
f 116//30 117//30 118//30
f 116//30 119//30 117//30
f 116//30 120//30 121//30
f 121//30 122//30 116//30
f 122//30 119//30 116//30
f 116//30 123//30 120//30
f 116//30 124//30 125//30
f 116//30 126//30 127//30
f 127//30 124//30 116//30
f 125//30 128//30 116//30
f 116//30 129//30 130//30
f 130//30 131//30 116//30
f 131//30 126//30 116//30
f 128//30 115//30 116//30
f 116//30 132//30 133//30
f 116//30 134//30 135//30
f 112//30 136//30 134//30
f 134//30 116//30 112//30
f 135//30 132//30 116//30
f 133//30 137//30 116//30
f 137//30 123//30 116//30
f 116//30 115//30 112//30
f 118//30 129//30 116//30
f 115//30 138//30 113//30
f 114//30 139//30 112//30
f 140//31 141//31 142//31
f 142//31 143//31 140//31
f 140//31 143//31 112//31
f 143//31 136//31 112//31
f 112//31 139//31 140//31
f 142//31 144//31 143//31
f 145//32 140//32 139//32
f 141//32 140//32 146//32
f 140//32 145//32 147//32
f 147//32 146//32 140//32
f 148//32 149//32 147//32
f 147//32 145//32 148//32
f 146//32 150//32 141//32
f 139//32 114//32 145//32
f 151//33 152//33 153//33
f 153//33 115//33 151//33
f 154//34 155//34 135//34
f 135//35 155//35 156//35
f 133//36 132//36 156//36
f 157//37 158//37 137//37
f 137//38 158//38 159//38
f 160//39 120//39 123//39
f 121//40 120//40 160//40
f 121//41 161//41 162//41
f 122//42 162//42 163//42
f 163//43 164//43 117//43
f 165//44 118//44 117//44
f 129//45 118//45 165//45
f 129//46 166//46 167//46
f 130//47 167//47 168//47
f 169//48 126//48 131//48
f 126//49 169//49 170//49
f 170//50 171//50 124//50
f 125//51 124//51 171//51
f 125//52 172//52 173//52
f 174//53 151//53 175//53
f 115//54 176//54 175//54
f 128//55 173//55 176//55
f 176//56 115//56 128//56
f 175//54 151//54 115//54
f 177//52 174//52 178//52
f 177//51 179//51 180//51
f 181//50 182//50 180//50
f 181//49 183//49 184//49
f 185//48 186//48 187//48
f 188//47 186//47 185//47
f 188//46 189//46 190//46
f 191//45 190//45 192//45
f 193//44 194//44 195//44
f 193//43 196//43 197//43
f 198//42 199//42 197//42
f 198//41 200//41 201//41
f 201//40 200//40 202//40
f 203//39 204//39 205//39
f 204//38 203//38 206//38
f 206//37 207//37 208//37
f 208//36 207//36 209//36
f 210//35 211//35 209//35
f 210//34 212//34 213//34
f 134//57 136//57 214//57
f 215//58 214//58 143//58
f 214//58 136//58 143//58
f 143//58 144//58 215//58
f 216//59 213//59 215//59
f 215//60 144//60 216//60
f 214//59 154//59 134//59
f 213//34 216//34 210//34
f 209//35 212//35 210//35
f 209//36 211//36 208//36
f 208//37 217//37 206//37
f 206//38 217//38 204//38
f 205//39 202//39 203//39
f 202//40 205//40 201//40
f 201//41 199//41 198//41
f 197//42 196//42 198//42
f 197//43 194//43 193//43
f 195//44 192//44 193//44
f 192//45 195//45 191//45
f 190//46 191//46 188//46
f 185//47 189//47 188//47
f 187//48 184//48 185//48
f 184//49 187//49 181//49
f 180//50 183//50 181//50
f 180//51 182//51 177//51
f 178//52 179//52 177//52
f 175//55 178//55 174//55
f 173//52 128//52 125//52
f 171//51 172//51 125//51
f 124//50 127//50 170//50
f 170//49 127//49 126//49
f 131//48 168//48 169//48
f 168//47 131//47 130//47
f 167//46 130//46 129//46
f 165//45 166//45 129//45
f 117//44 164//44 165//44
f 117//43 119//43 163//43
f 163//42 119//42 122//42
f 162//41 122//41 121//41
f 160//40 161//40 121//40
f 123//39 159//39 160//39
f 159//38 123//38 137//38
f 137//61 133//61 157//61
f 156//36 157//36 133//36
f 156//35 132//35 135//35
f 135//34 134//34 154//34
f 153//33 138//33 115//33
f 145//62 153//62 218//62
f 153//62 152//62 218//62
f 145//62 114//62 113//62
f 113//62 153//62 145//62
f 113//62 138//62 153//62
f 218//62 148//62 145//62
f 219//63 166//63 165//63
f 219//63 168//63 167//63
f 219//63 162//63 161//63
f 167//63 166//63 219//63
f 219//63 163//63 162//63
f 165//63 164//63 219//63
f 220//63 219//63 157//63
f 164//63 163//63 219//63
f 220//63 156//63 155//63
f 219//63 158//63 157//63
f 161//63 160//63 219//63
f 219//63 171//63 170//63
f 219//63 173//63 172//63
f 157//63 156//63 220//63
f 219//63 169//63 168//63
f 172//63 171//63 219//63
f 155//63 154//63 220//63
f 170//63 169//63 219//63
f 219//63 159//63 158//63
f 219//63 176//63 173//63
f 160//63 159//63 219//63
f 154//63 214//63 220//63
f 214//62 215//62 221//62
f 221//62 220//62 214//62
f 222//64 219//64 223//64
f 219//64 220//64 224//64
f 224//64 223//64 219//64
f 221//64 225//64 224//64
f 224//64 220//64 221//64
f 223//64 226//64 222//64
f 222//31 175//31 176//31
f 176//31 219//31 222//31
f 223//63 224//63 146//63
f 146//63 147//63 223//63
f 227//62 150//62 225//62
f 146//62 224//62 225//62
f 225//62 150//62 146//62
f 225//62 228//62 227//62
f 147//31 149//31 226//31
f 229//31 230//31 226//31
f 226//31 149//31 229//31
f 226//31 223//31 147//31
f 228//30 231//30 232//30
f 230//30 232//30 233//30
f 228//30 234//30 231//30
f 235//30 236//30 190//30
f 184//30 230//30 237//30
f 232//30 230//30 228//30
f 228//30 206//30 238//30
f 239//30 203//30 202//30
f 198//30 196//30 240//30
f 193//30 192//30 241//30
f 236//30 241//30 192//30
f 190//30 189//30 235//30
f 242//30 235//30 185//30
f 230//30 243//30 237//30
f 233//30 244//30 230//30
f 238//30 245//30 228//30
f 239//30 206//30 203//30
f 246//30 200//30 198//30
f 196//30 193//30 247//30
f 192//30 190//30 236//30
f 185//30 184//30 242//30
f 237//30 248//30 184//30
f 245//30 234//30 228//30
f 202//30 249//30 239//30
f 249//30 202//30 200//30
f 247//30 240//30 196//30
f 226//30 179//30 178//30
f 183//30 226//30 230//30
f 207//30 206//30 228//30
f 221//30 213//30 212//30
f 189//30 185//30 235//30
f 244//30 243//30 230//30
f 239//30 250//30 206//30
f 240//30 246//30 198//30
f 226//30 180//30 179//30
f 230//30 184//30 183//30
f 225//30 209//30 207//30
f 212//30 225//30 221//30
f 248//30 242//30 184//30
f 200//30 246//30 249//30
f 183//30 180//30 226//30
f 212//30 209//30 225//30
f 250//30 238//30 206//30
f 178//30 222//30 226//30
f 221//30 215//30 213//30
f 178//30 175//30 222//30
f 241//30 247//30 193//30
f 228//30 225//30 207//30
f 227//32 228//32 230//32
f 230//32 229//32 227//32
f 251//65 252//65 232//65
f 253//66 251//66 231//66
f 254//67 253//67 234//67
f 255//68 254//68 245//68
f 256//69 255//69 238//69
f 238//69 250//69 256//69
f 245//68 238//68 255//68
f 234//67 245//67 254//67
f 231//66 234//66 253//66
f 232//65 231//65 251//65
f 257//70 256//70 250//70
f 258//71 257//71 239//71
f 259//72 258//72 249//72
f 260//73 259//73 246//73
f 261//74 260//74 240//74
f 240//74 247//74 261//74
f 246//73 240//73 260//73
f 249//72 246//72 259//72
f 239//71 249//71 258//71
f 250//70 239//70 257//70
f 262//75 263//75 248//75
f 264//76 262//76 237//76
f 265//77 264//77 243//77
f 266//78 265//78 244//78
f 252//79 266//79 233//79
f 233//79 232//79 252//79
f 244//78 233//78 266//78
f 243//77 244//77 265//77
f 237//76 243//76 264//76
f 248//75 237//75 262//75
f 267//80 261//80 247//80
f 268//81 267//81 241//81
f 269//82 268//82 236//82
f 270//83 269//83 235//83
f 263//84 270//84 242//84
f 242//84 248//84 263//84
f 235//83 242//83 270//83
f 236//82 235//82 269//82
f 241//81 236//81 268//81
f 247//80 241//80 267//80
f 148//63 252//63 229//63
f 148//63 262//63 264//63
f 148//63 263//63 262//63
f 264//63 265//63 148//63
f 265//63 266//63 148//63
f 148//63 267//63 268//63
f 268//63 269//63 148//63
f 269//63 270//63 148//63
f 270//63 263//63 148//63
f 218//63 261//63 267//63
f 218//63 142//63 261//63
f 267//63 148//63 218//63
f 142//63 260//63 261//63
f 142//63 259//63 260//63
f 142//63 257//63 258//63
f 142//63 256//63 257//63
f 258//63 259//63 142//63
f 142//63 227//63 254//63
f 254//63 255//63 142//63
f 227//63 253//63 254//63
f 227//63 251//63 253//63
f 255//63 256//63 142//63
f 227//63 229//63 252//63
f 252//63 251//63 227//63
f 266//63 252//63 148//63
f 141//63 150//63 227//63
f 227//63 142//63 141//63
f 142//63 271//63 216//63
f 271//63 211//63 210//63
f 210//63 216//63 271//63
f 271//63 217//63 208//63
f 208//63 211//63 271//63
f 271//63 204//63 217//63
f 142//63 151//63 271//63
f 271//63 186//63 188//63
f 271//63 187//63 186//63
f 271//63 182//63 181//63
f 271//63 174//63 177//63
f 177//63 182//63 271//63
f 271//63 151//63 174//63
f 181//63 187//63 271//63
f 271//63 199//63 201//63
f 271//63 197//63 199//63
f 271//63 191//63 195//63
f 195//63 194//63 271//63
f 194//63 197//63 271//63
f 201//63 205//63 271//63
f 205//63 204//63 271//63
f 188//63 191//63 271//63
f 218//63 152//63 151//63
f 151//63 142//63 218//63
f 216//63 144//63 142//63
f 229//63 149//63 148//63
f 272//30 273//30 274//30
f 274//30 275//30 272//30
f 275//31 274//31 276//31
f 276//31 277//31 275//31
f 274//32 273//32 278//32
f 278//32 279//32 274//32
f 273//32 280//32 278//32
f 279//32 276//32 274//32
f 272//64 275//64 281//64
f 281//64 282//64 272//64
f 275//64 277//64 281//64
f 282//64 283//64 272//64
f 283//62 280//62 273//62
f 273//62 272//62 283//62
f 277//63 276//63 279//63
f 279//63 281//63 277//63
f 282//63 281//63 279//63
f 279//63 278//63 282//63
f 281//31 279//31 284//31
f 284//31 285//31 281//31
f 284//32 279//32 286//32
f 279//32 278//32 287//32
f 287//32 286//32 279//32
f 288//32 289//32 287//32
f 287//32 278//32 288//32
f 286//32 290//32 284//32
f 291//64 282//64 292//64
f 281//64 293//64 292//64
f 292//64 282//64 281//64
f 285//64 294//64 293//64
f 293//64 281//64 285//64
f 292//64 295//64 291//64
f 283//63 282//63 278//63
f 278//63 280//63 283//63
f 291//62 288//62 278//62
f 278//62 282//62 291//62
f 296//30 297//30 298//30
f 299//30 286//30 300//30
f 286//30 287//30 301//30
f 298//30 287//30 296//30
f 296//30 302//30 303//30
f 299//30 304//30 302//30
f 286//30 305//30 300//30
f 301//30 306//30 286//30
f 287//30 307//30 308//30
f 303//30 297//30 296//30
f 299//30 309//30 304//30
f 306//30 305//30 286//30
f 298//30 307//30 287//30
f 300//30 309//30 299//30
f 302//30 296//30 299//30
f 308//30 301//30 287//30
f 299//31 310//31 290//31
f 290//31 286//31 299//31
f 311//32 310//32 299//32
f 299//32 296//32 311//32
f 287//30 286//30 293//30
f 293//30 292//30 287//30
f 293//31 286//31 290//31
f 290//31 294//31 293//31
f 287//32 289//32 290//32
f 290//32 286//32 287//32
f 295//64 292//64 293//64
f 293//64 294//64 295//64
f 308//30 298//30 297//30
f 304//30 300//30 305//30
f 308//30 303//30 302//30
f 308//30 307//30 298//30
f 304//30 306//30 301//30
f 304//30 309//30 300//30
f 297//30 303//30 308//30
f 305//30 306//30 304//30
f 301//30 308//30 304//30
f 302//30 304//30 308//30
f 312//85 300//85 309//85
f 313//82 309//82 304//82
f 314//86 304//86 302//86
f 302//86 315//86 314//86
f 304//82 314//82 313//82
f 309//85 313//85 312//85
f 316//87 301//87 306//87
f 317//77 306//77 305//77
f 318//88 305//88 300//88
f 300//88 312//88 318//88
f 305//77 318//77 317//77
f 306//87 317//87 316//87
f 315//89 302//89 303//89
f 319//72 303//72 297//72
f 320//90 297//90 298//90
f 298//90 321//90 320//90
f 297//72 320//72 319//72
f 303//89 319//89 315//89
f 321//91 298//91 307//91
f 322//67 307//67 308//67
f 323//92 308//92 301//92
f 301//92 316//92 323//92
f 308//67 323//67 322//67
f 307//91 322//91 321//91
f 296//62 287//62 289//62
f 289//62 311//62 296//62
f 292//62 295//62 289//62
f 289//62 287//62 292//62
f 285//63 284//63 290//63
f 290//63 294//63 285//63
f 311//63 289//63 321//63
f 310//63 313//63 312//63
f 311//63 320//63 319//63
f 289//63 322//63 321//63
f 289//63 290//63 316//63
f 290//63 318//63 317//63
f 312//63 290//63 310//63
f 310//63 311//63 315//63
f 321//63 320//63 311//63
f 316//63 323//63 289//63
f 312//63 318//63 290//63
f 315//63 314//63 310//63
f 323//63 322//63 289//63
f 314//63 313//63 310//63
f 317//63 316//63 290//63
f 319//63 315//63 311//63
f 294//63 290//63 289//63
f 289//63 295//63 294//63
f 323//63 319//63 320//63
f 314//63 317//63 318//63
f 319//63 323//63 316//63
f 320//63 321//63 323//63
f 317//63 314//63 315//63
f 318//63 312//63 314//63
f 321//63 322//63 323//63
f 312//63 313//63 314//63
f 315//63 319//63 317//63
f 316//63 317//63 319//63
f 324//85 312//85 313//85
f 325//82 313//82 314//82
f 326//86 314//86 315//86
f 315//86 327//86 326//86
f 314//82 326//82 325//82
f 313//85 325//85 324//85
f 328//87 316//87 317//87
f 329//77 317//77 318//77
f 330//88 318//88 312//88
f 312//88 324//88 330//88
f 318//77 330//77 329//77
f 317//87 329//87 328//87
f 327//89 315//89 319//89
f 331//72 319//72 320//72
f 332//90 320//90 321//90
f 321//90 333//90 332//90
f 320//72 332//72 331//72
f 319//89 331//89 327//89
f 333//91 321//91 322//91
f 334//67 322//67 323//67
f 335//92 323//92 316//92
f 316//92 328//92 335//92
f 323//67 335//67 334//67
f 322//91 334//91 333//91
f 291//63 295//63 289//63
f 289//63 288//63 291//63
f 334//63 331//63 332//63
f 330//63 326//63 327//63
f 326//63 330//63 324//63
f 331//63 335//63 328//63
f 332//63 333//63 334//63
f 324//63 325//63 326//63
f 334//63 335//63 331//63
f 331//63 329//63 330//63
f 327//63 331//63 330//63
f 328//63 329//63 331//63
o Patch_Antenna_Modell
v -44.375000 13.167293 44.150002
v -44.375000 13.167293 -44.150002
v -44.375000 0.000000 -44.150002
v -44.375000 13.953127 -43.554359
v -44.375000 18.499346 -10.982516
v -44.375000 25.795231 -0.905559
v -44.375000 25.627254 -5.447705
v -44.375000 25.722961 3.639022
v -44.375000 24.070026 17.161419
v -44.375000 24.859156 12.685173
v -44.375000 25.410645 8.173524
v -44.375000 23.045565 21.589325
v -44.375000 19.814043 -31.521189
v -44.375000 18.036640 -35.704491
v -44.375000 22.693892 -22.902309
v -44.375000 21.367903 -27.249828
v -44.375000 16.040655 -39.788055
v -44.375000 25.219498 -9.974629
v -44.375000 24.573099 -14.473680
v -44.375000 23.689863 -18.932293
v -44.375000 19.646826 31.942324
v -44.375000 21.223183 27.679186
v -44.375000 15.829927 40.189190
v -44.375000 17.847490 36.116016
v -44.375000 13.599986 44.150002
v -44.375000 22.572060 23.338715
v -44.375000 13.599986 -44.150002
v -44.375000 0.000000 44.150002
v 0.000000 0.000000 44.150002
v 44.375000 0.000000 44.150002
v 44.375000 13.167293 44.150002
v 0.000000 13.599986 44.150002
v 44.375000 13.599986 44.150002
v 0.000000 0.000000 -44.150002
v 44.375000 0.000000 -44.150002
v 44.375000 0.000000 -5.000000
v 44.375000 13.953127 -43.554359
v 44.375000 13.599986 -44.150002
v 0.000000 13.599986 -44.150002
v -42.775002 15.829927 40.189190
v -42.775002 17.847490 36.116016
v -42.775002 19.646826 31.942324
v -42.775002 21.223183 27.679186
v -42.775002 22.572060 23.338715
v -42.775002 23.045565 21.589325
v -42.775002 24.070026 17.161419
v -42.775002 24.859156 12.685173
v -42.775002 25.410645 8.173524
v -42.775002 25.722961 3.639022
v -42.775002 25.795231 -0.905559
v -42.775002 25.627254 -5.447705
v -42.775002 25.219498 -9.974629
v -42.775002 24.573099 -14.473680
v -42.775002 23.689863 -18.932293
v -42.775002 22.693892 -22.902309
v -42.775002 21.367903 -27.249828
v -42.775002 19.814043 -31.521189
v -42.775002 18.036640 -35.704491
v -42.775002 16.040655 -39.788055
v 44.375000 16.040655 -39.788055
v 42.775002 14.534076 -42.549999
v -42.775002 14.534076 -42.549999
v 44.375000 18.036640 -35.704491
v 42.775002 16.040655 -39.788055
v 42.775002 18.036640 -35.704491
v 42.775002 19.814043 -31.521189
v 44.375000 21.367903 -27.249828
v 44.375000 19.814043 -31.521189
v 42.775002 21.367903 -27.249828
v 42.775002 22.693892 -22.902309
v 42.775002 23.689863 -18.932293
v 44.375000 23.689863 -18.932293
v 44.375000 22.693892 -22.902309
v 44.375000 24.573099 -14.473680
v 42.775002 24.573099 -14.473680
v 42.775002 25.219498 -9.974629
v 44.375000 25.219498 -9.974629
v 42.775002 25.627254 -5.447705
v 42.775002 25.795231 -0.905559
v 44.375000 25.795231 -0.905559
v 44.375000 25.627254 -5.447705
v 42.775002 25.722961 3.639022
v 44.375000 25.722961 3.639022
v 42.775002 25.410645 8.173524
v 44.375000 25.410645 8.173524
v 42.775002 24.859156 12.685173
v 44.375000 24.859156 12.685173
v 42.775002 24.070026 17.161419
v 42.775002 23.045565 21.589325
v 44.375000 23.045565 21.589325
v 44.375000 24.070026 17.161419
v 42.775002 22.572060 23.338715
v 42.775002 21.223183 27.679186
v 44.375000 21.223183 27.679186
v 42.775002 19.646826 31.942324
v 44.375000 17.847490 36.116016
v 44.375000 19.646826 31.942324
v 42.775002 17.847490 36.116016
v 42.775002 15.829927 40.189190
v -42.775002 14.534076 42.549999
v 42.775002 14.534076 42.549999
v 44.375000 15.829927 40.189190
v 44.375000 22.572060 23.338715
v 44.375000 13.167293 -44.150002
v -42.775002 1.600000 -42.549999
v -42.775002 1.600000 42.549999
v 42.775002 1.600000 42.549999
v 42.775002 1.600000 -42.549999
v 42.775002 1.600000 5.000000
v 42.775002 1.600000 -5.000000
v 44.375000 3.500000 5.000000
v 42.775002 3.500000 5.000000
v 44.375000 3.500000 -5.000000
v 42.775002 3.500000 -5.000000
v 42.775002 7.004172 0.973404
v 42.775002 6.850000 0.000000
v 42.775002 7.004172 -0.973404
v 42.775002 7.451596 1.851524
v 42.775002 11.851523 -2.548404
v 42.775002 12.548404 -1.851524
v 42.775002 9.026596 -2.995828
v 42.775002 9.026596 2.995828
v 42.775002 10.973404 2.995828
v 42.775002 12.995828 0.973404
v 42.775002 12.995828 -0.973404
v 42.775002 10.973404 -2.995828
v 42.775002 8.148477 -2.548404
v 42.775002 7.451596 -1.851524
v 42.775002 8.148477 2.548404
v 42.775002 12.548404 1.851524
v 42.775002 13.150000 -0.000000
v 42.775002 10.000000 -3.150000
v 42.775002 11.851523 2.548404
v 42.775002 10.000000 3.150000
v 44.375000 7.004172 0.973404
v 44.375000 6.850000 0.000000
v 44.375000 7.451596 1.851524
v 44.375000 8.148477 2.548404
v 44.375000 9.026596 2.995828
v 44.375000 10.000000 3.150000
v 44.375000 10.973404 2.995828
v 44.375000 11.851523 2.548404
v 44.375000 12.548404 1.851524
v 44.375000 12.995828 0.973404
v 44.375000 13.150000 -0.000000
v 44.375000 9.026596 -2.995828
v 44.375000 10.000000 -3.150000
v 44.375000 8.148477 -2.548404
v 44.375000 7.451596 -1.851524
v 44.375000 7.004172 -0.973404
v 44.375000 12.995828 -0.973404
v 44.375000 12.548404 -1.851524
v 44.375000 11.851523 -2.548404
v 44.375000 10.973404 -2.995828
v 44.375000 18.499346 -10.982516
v 36.000000 11.550000 6.500000
v 35.450001 11.550000 3.450000
v 36.000000 11.550000 3.450000
v 35.450001 12.100000 3.450000
v 36.000000 12.100000 3.450000
v 35.450001 7.700000 -3.450000
v 35.450001 9.750000 -0.433013
v 35.450001 10.000000 -0.500000
v 35.450001 7.700000 3.450000
v 35.450001 10.000000 0.500000
v 35.450001 10.500000 -0.000000
v 35.450001 9.500000 0.000000
v 35.450001 9.566987 -0.250000
v 35.450001 9.566987 0.250000
v 35.450001 10.250000 0.433013
v 35.450001 10.433013 0.250000
v 35.450001 10.250000 -0.433013
v 35.450001 10.433013 -0.250000
v 35.450001 9.750000 0.433013
v 36.000000 7.700000 3.450000
v 36.000000 7.700000 -3.450000
v 36.000000 10.000000 0.500000
v 36.000000 9.750000 0.433013
v 36.000000 9.566987 0.250000
v 36.000000 9.500000 0.000000
v 36.000000 10.500000 -0.000000
v 36.000000 10.433013 0.250000
v 36.000000 10.250000 0.433013
v 36.000000 9.566987 -0.250000
v 36.000000 9.750000 -0.433013
v 36.000000 10.000000 -0.500000
v 36.000000 10.250000 -0.433013
v 36.000000 10.433013 -0.250000
vn -1.0000 0.0000 0.0000
vn 0.0000 0.0000 1.0000
vn 0.0000 0.8602 -0.5100
vn 0.0000 0.8961 0.4439
vn 0.0000 0.9183 0.3959
vn 0.0000 0.9379 0.3468
vn 0.0000 0.9549 0.2968
vn 0.0000 0.9653 0.2613
vn 0.0000 0.9743 0.2254
vn 0.0000 0.9848 0.1736
vn 0.0000 0.9926 0.1213
vn 0.0000 0.9976 0.0687
vn 0.0000 0.9999 0.0159
vn 0.0000 0.9993 -0.0370
vn 0.0000 0.9960 -0.0897
vn 0.0000 0.9898 -0.1422
vn 0.0000 0.9809 -0.1943
vn 0.0000 0.9699 -0.2433
vn 0.0000 0.9565 -0.2917
vn 0.0000 0.9397 -0.3419
vn 0.0000 0.9204 -0.3910
vn 0.0000 0.8984 -0.4391
vn 0.0133 0.8746 -0.4847
vn 0.0000 0.8656 -0.5007
vn 0.0000 0.8779 -0.4789
vn -0.0133 0.8746 -0.4847
vn -0.0181 0.8712 0.4905
vn 0.0000 0.8636 0.5042
vn 0.0000 0.8766 0.4812
vn 0.0181 0.8712 0.4905
vn 0.0000 0.9550 0.2968
vn -0.0000 0.0000 -1.0000
vn 1.0000 -0.0000 0.0000
vn 0.0000 0.9877 -0.1564
vn 0.0000 0.8910 -0.4540
vn 0.0000 0.7071 -0.7071
vn 0.0000 0.4540 -0.8910
vn 0.0000 0.1564 -0.9877
vn 0.0000 -0.1564 -0.9877
vn 0.0000 -0.4540 -0.8910
vn 0.0000 -0.7071 -0.7071
vn 0.0000 -0.8910 -0.4540
vn 0.0000 -0.9877 -0.1564
vn 0.0000 0.1564 0.9877
vn 0.0000 0.4540 0.8910
vn 0.0000 0.7071 0.7071
vn 0.0000 0.8910 0.4540
vn 0.0000 0.9877 0.1564
vn 0.0000 -0.9877 0.1564
vn 0.0000 -0.8910 0.4540
vn 0.0000 -0.7071 0.7071
vn 0.0000 -0.4540 0.8910
vn 0.0000 -0.1564 0.9877
vn 0.0000 -1.0000 0.0000
vn 0.0000 -0.2588 0.9659
vn 0.0000 -0.9659 0.2588
vn 0.0000 0.9659 0.2588
vn 0.0000 0.2588 0.9659
vn 0.0000 -0.9659 -0.2588
vn 0.0000 -0.2588 -0.9659
vn 0.0000 0.2588 -0.9659
vn 0.0000 0.9659 -0.2588
usemtl None
s off
f 336//93 337//93 338//93
f 337//93 336//93 339//93
f 340//93 341//93 342//93
f 340//93 343//93 341//93
f 340//93 344//93 345//93
f 345//93 346//93 340//93
f 346//93 343//93 340//93
f 340//93 347//93 344//93
f 340//93 348//93 349//93
f 340//93 350//93 351//93
f 351//93 348//93 340//93
f 349//93 352//93 340//93
f 340//93 353//93 354//93
f 354//93 355//93 340//93
f 355//93 350//93 340//93
f 352//93 339//93 340//93
f 340//93 356//93 357//93
f 340//93 358//93 359//93
f 336//93 360//93 358//93
f 358//93 340//93 336//93
f 359//93 356//93 340//93
f 357//93 361//93 340//93
f 361//93 347//93 340//93
f 340//93 339//93 336//93
f 342//93 353//93 340//93
f 339//93 362//93 337//93
f 338//93 363//93 336//93
f 364//94 365//94 366//94
f 366//94 367//94 364//94
f 364//94 367//94 336//94
f 367//94 360//94 336//94
f 336//94 363//94 364//94
f 366//94 368//94 367//94
f 372//95 373//95 374//95
f 374//95 339//95 372//95
f 375//96 376//96 359//96
f 359//97 376//97 377//97
f 357//98 356//98 377//98
f 378//99 379//99 361//99
f 361//100 379//100 380//100
f 381//101 344//101 347//101
f 345//102 344//102 381//102
f 345//103 382//103 383//103
f 346//104 383//104 384//104
f 384//105 385//105 341//105
f 386//106 342//106 341//106
f 353//107 342//107 386//107
f 353//108 387//108 388//108
f 354//109 388//109 389//109
f 390//110 350//110 355//110
f 350//111 390//111 391//111
f 391//112 392//112 348//112
f 349//113 348//113 392//113
f 349//114 393//114 394//114
f 395//115 372//115 396//115
f 339//116 397//116 396//116
f 352//117 394//117 397//117
f 397//118 339//118 352//118
f 396//116 372//116 339//116
f 398//114 395//114 399//114
f 398//113 400//113 401//113
f 402//112 403//112 401//112
f 402//111 404//111 405//111
f 406//110 407//110 408//110
f 409//109 407//109 406//109
f 409//108 410//108 411//108
f 412//107 411//107 413//107
f 414//106 415//106 416//106
f 414//105 417//105 418//105
f 419//104 420//104 418//104
f 419//103 421//103 422//103
f 422//102 421//102 423//102
f 424//101 425//101 426//101
f 425//100 424//100 427//100
f 427//99 428//99 429//99
f 429//98 428//98 430//98
f 431//97 432//97 430//97
f 431//96 433//96 434//96
f 358//119 360//119 435//119
f 436//120 435//120 367//120
f 435//120 360//120 367//120
f 367//120 368//120 436//120
f 437//121 434//121 436//121
f 436//122 368//122 437//122
f 435//121 375//121 358//121
f 434//96 437//96 431//96
f 430//97 433//97 431//97
f 430//98 432//98 429//98
f 429//99 438//99 427//99
f 427//100 438//100 425//100
f 426//101 423//101 424//101
f 423//102 426//102 422//102
f 422//103 420//103 419//103
f 418//104 417//104 419//104
f 418//105 415//105 414//105
f 416//106 413//106 414//106
f 413//107 416//107 412//107
f 411//108 412//108 409//108
f 406//109 410//109 409//109
f 408//110 405//110 406//110
f 405//111 408//111 402//111
f 401//112 404//112 402//112
f 401//113 403//113 398//113
f 399//114 400//114 398//114
f 396//117 399//117 395//117
f 394//114 352//114 349//114
f 392//113 393//113 349//113
f 348//112 351//112 391//112
f 391//111 351//111 350//111
f 355//110 389//110 390//110
f 389//109 355//109 354//109
f 388//108 354//108 353//108
f 386//107 387//107 353//107
f 341//106 385//106 386//106
f 341//105 343//105 384//105
f 384//104 343//104 346//104
f 383//103 346//103 345//103
f 381//102 382//102 345//102
f 347//101 380//101 381//101
f 380//100 347//100 361//100
f 361//123 357//123 378//123
f 377//98 378//98 357//98
f 377//97 356//97 359//97
f 359//96 358//96 375//96
f 374//95 362//95 339//95
f 369//124 374//124 439//124
f 374//124 373//124 439//124
f 369//124 338//124 337//124
f 337//124 374//124 369//124
f 337//124 362//124 374//124
f 439//124 370//124 369//124
f 440//125 387//125 386//125
f 440//125 389//125 388//125
f 440//125 383//125 382//125
f 388//125 387//125 440//125
f 440//125 384//125 383//125
f 386//125 385//125 440//125
f 441//125 440//125 378//125
f 385//125 384//125 440//125
f 441//125 377//125 376//125
f 440//125 379//125 378//125
f 382//125 381//125 440//125
f 440//125 392//125 391//125
f 440//125 394//125 393//125
f 378//125 377//125 441//125
f 440//125 390//125 389//125
f 393//125 392//125 440//125
f 376//125 375//125 441//125
f 391//125 390//125 440//125
f 440//125 380//125 379//125
f 440//125 397//125 394//125
f 381//125 380//125 440//125
f 375//125 435//125 441//125
f 447//93 450//93 451//93
f 449//93 451//93 452//93
f 447//93 453//93 450//93
f 454//93 455//93 411//93
f 405//93 449//93 456//93
f 451//93 449//93 447//93
f 447//93 427//93 457//93
f 458//93 424//93 423//93
f 419//93 417//93 459//93
f 414//93 413//93 460//93
f 455//93 460//93 413//93
f 411//93 410//93 454//93
f 461//93 454//93 406//93
f 449//93 462//93 456//93
f 452//93 463//93 449//93
f 457//93 464//93 447//93
f 458//93 427//93 424//93
f 465//93 421//93 419//93
f 417//93 414//93 466//93
f 413//93 411//93 455//93
f 406//93 405//93 461//93
f 456//93 467//93 405//93
f 464//93 453//93 447//93
f 423//93 468//93 458//93
f 468//93 423//93 421//93
f 466//93 459//93 417//93
f 445//93 400//93 399//93
f 404//93 445//93 449//93
f 428//93 427//93 447//93
f 442//93 434//93 433//93
f 410//93 406//93 454//93
f 463//93 462//93 449//93
f 458//93 469//93 427//93
f 459//93 465//93 419//93
f 445//93 401//93 400//93
f 449//93 405//93 404//93
f 444//93 430//93 428//93
f 433//93 444//93 442//93
f 467//93 461//93 405//93
f 421//93 465//93 468//93
f 404//93 401//93 445//93
f 433//93 430//93 444//93
f 469//93 457//93 427//93
f 399//93 443//93 445//93
f 442//93 436//93 434//93
f 399//93 396//93 443//93
f 460//93 466//93 414//93
f 447//93 444//93 428//93
f 470//126 471//126 451//126
f 472//127 470//127 450//127
f 473//128 472//128 453//128
f 474//129 473//129 464//129
f 475//130 474//130 457//130
f 457//130 469//130 475//130
f 464//129 457//129 474//129
f 453//128 464//128 473//128
f 450//127 453//127 472//127
f 451//126 450//126 470//126
f 476//131 475//131 469//131
f 477//132 476//132 458//132
f 478//133 477//133 468//133
f 479//134 478//134 465//134
f 480//135 479//135 459//135
f 459//135 466//135 480//135
f 465//134 459//134 479//134
f 468//133 465//133 478//133
f 458//132 468//132 477//132
f 469//131 458//131 476//131
f 481//136 482//136 467//136
f 483//137 481//137 456//137
f 484//138 483//138 462//138
f 485//139 484//139 463//139
f 471//140 485//140 452//140
f 452//140 451//140 471//140
f 463//139 452//139 485//139
f 462//138 463//138 484//138
f 456//137 462//137 483//137
f 467//136 456//136 481//136
f 486//141 480//141 466//141
f 487//142 486//142 460//142
f 488//143 487//143 455//143
f 489//144 488//144 454//144
f 482//145 489//145 461//145
f 461//145 467//145 482//145
f 454//144 461//144 489//144
f 455//143 454//143 488//143
f 460//142 455//142 487//142
f 466//141 460//141 486//141
f 370//125 471//125 448//125
f 370//125 481//125 483//125
f 370//125 482//125 481//125
f 483//125 484//125 370//125
f 484//125 485//125 370//125
f 370//125 486//125 487//125
f 487//125 488//125 370//125
f 488//125 489//125 370//125
f 489//125 482//125 370//125
f 439//125 480//125 486//125
f 439//125 366//125 480//125
f 486//125 370//125 439//125
f 366//125 479//125 480//125
f 366//125 478//125 479//125
f 366//125 476//125 477//125
f 366//125 475//125 476//125
f 477//125 478//125 366//125
f 366//125 446//125 473//125
f 473//125 474//125 366//125
f 446//125 472//125 473//125
f 446//125 470//125 472//125
f 474//125 475//125 366//125
f 446//125 448//125 471//125
f 471//125 470//125 446//125
f 485//125 471//125 370//125
f 446//125 366//125 365//125
f 366//125 490//125 437//125
f 490//125 432//125 431//125
f 431//125 437//125 490//125
f 490//125 438//125 429//125
f 429//125 432//125 490//125
f 490//125 425//125 438//125
f 366//125 372//125 490//125
f 490//125 407//125 409//125
f 490//125 408//125 407//125
f 490//125 403//125 402//125
f 490//125 395//125 398//125
f 398//125 403//125 490//125
f 490//125 372//125 395//125
f 402//125 408//125 490//125
f 490//125 420//125 422//125
f 490//125 418//125 420//125
f 490//125 412//125 416//125
f 416//125 415//125 490//125
f 415//125 418//125 490//125
f 422//125 426//125 490//125
f 426//125 425//125 490//125
f 409//125 412//125 490//125
f 439//125 373//125 372//125
f 372//125 366//125 439//125
f 437//125 368//125 366//125
f 448//125 371//125 370//125
f 492//146 493//146 491//146
f 511//146 510//146 499//146
f 499//146 496//146 511//146
f 494//94 492//94 493//94
f 493//94 495//94 494//94
f 504//93 509//93 500//93
f 512//147 500//147 509//147
f 513//143 509//143 504//143
f 514//148 504//148 502//148
f 502//148 515//148 514//148
f 504//143 514//143 513//143
f 509//147 513//147 512//147
f 516//149 501//149 506//149
f 517//138 506//138 505//138
f 518//150 505//150 500//150
f 500//150 512//150 518//150
f 505//138 518//138 517//138
f 506//149 517//149 516//149
f 515//151 502//151 503//151
f 519//133 503//133 497//133
f 520//152 497//152 498//152
f 498//152 521//152 520//152
f 497//133 520//133 519//133
f 503//151 519//151 515//151
f 521//153 498//153 507//153
f 522//128 507//128 508//128
f 523//154 508//154 501//154
f 501//154 516//154 523//154
f 508//128 523//128 522//128
f 507//153 522//153 521//153
f 523//125 519//125 520//125
f 514//125 517//125 518//125
f 519//125 523//125 516//125
f 520//125 521//125 523//125
f 517//125 514//125 515//125
f 518//125 512//125 514//125
f 521//125 522//125 523//125
f 512//125 513//125 514//125
f 515//125 519//125 517//125
f 516//125 517//125 519//125
