-1.5707963e+00 -3.9574000e+01
-1.5533430e+00 -3.7571000e+01
-1.5358897e+00 -3.7973000e+01
-1.5184364e+00 -3.6562000e+01
-1.5009832e+00 -3.7036000e+01
-1.4835299e+00 -3.6864000e+01
-1.4660766e+00 -3.6102000e+01
-1.4486233e+00 -3.5984000e+01
-1.4311700e+00 -3.5046000e+01
-1.4137167e+00 -3.6134000e+01
-1.3962634e+00 -3.4699000e+01
-1.3788101e+00 -3.5157000e+01
-1.3613568e+00 -3.3745000e+01
-1.3439035e+00 -3.4655000e+01
-1.3264502e+00 -3.4330000e+01
-1.3089969e+00 -3.5817000e+01
-1.2915436e+00 -3.4883000e+01
-1.2740904e+00 -3.5219000e+01
-1.2566371e+00 -3.2174000e+01
-1.2391838e+00 -3.2645000e+01
-1.2217305e+00 -3.1324000e+01
-1.2042772e+00 -3.1018000e+01
-1.1868239e+00 -3.0293000e+01
-1.1693706e+00 -2.9191000e+01
-1.1519173e+00 -2.9222000e+01
-1.1344640e+00 -2.7920000e+01
-1.1170107e+00 -2.7490000e+01
-1.0995574e+00 -2.7568000e+01
-1.0821041e+00 -2.7538000e+01
-1.0646508e+00 -2.6533000e+01
-1.0471976e+00 -2.5799000e+01
-1.0297443e+00 -2.5567000e+01
-1.0122910e+00 -2.5292000e+01
-9.9483767e-01 -2.5698000e+01
-9.7738438e-01 -2.4821000e+01
-9.5993109e-01 -2.5389000e+01
-9.4247780e-01 -2.5730000e+01
-9.2502450e-01 -2.6117000e+01
-9.0757121e-01 -2.5372000e+01
-8.9011792e-01 -2.7484000e+01
-8.7266463e-01 -2.7889000e+01
-8.5521133e-01 -2.8153000e+01
-8.3775804e-01 -3.2565000e+01
-8.2030475e-01 -3.8122000e+01
-8.0285146e-01 -4.7531000e+01
-7.8539816e-01 -3.4846000e+01
-7.6794487e-01 -2.9782000e+01
-7.5049158e-01 -2.4818000e+01
-7.3303829e-01 -2.2001000e+01
-7.1558499e-01 -1.9291000e+01
-6.9813170e-01 -1.7379000e+01
-6.8067841e-01 -1.6514000e+01
-6.6322512e-01 -1.5649000e+01
-6.4577182e-01 -1.4702000e+01
-6.2831853e-01 -1.4317000e+01
-6.1086524e-01 -1.4512000e+01
-5.9341195e-01 -1.4483000e+01
-5.7595865e-01 -1.5078000e+01
-5.5850536e-01 -1.5809000e+01
-5.4105207e-01 -1.7147000e+01
-5.2359878e-01 -1.9594000e+01
-5.0614548e-01 -2.4340000e+01
-4.8869219e-01 -3.2206000e+01
-4.7123890e-01 -3.1540000e+01
-4.5378561e-01 -2.5668000e+01
-4.3633231e-01 -2.2832000e+01
-4.1887902e-01 -2.2060000e+01
-4.0142573e-01 -2.1870000e+01
-3.8397244e-01 -2.3461000e+01
-3.6651914e-01 -2.6515000e+01
-3.4906585e-01 -3.1835000e+01
-3.3161256e-01 -2.8658000e+01
-3.1415927e-01 -2.4611000e+01
-2.9670597e-01 -2.1674000e+01
-2.7925268e-01 -2.0366000e+01
-2.6179939e-01 -1.9234000e+01
-2.4434610e-01 -1.9208000e+01
-2.2689280e-01 -2.0438000e+01
-2.0943951e-01 -2.2012000e+01
-1.9198622e-01 -2.5212000e+01
-1.7453293e-01 -2.8935000e+01
-1.5707963e-01 -3.3296000e+01
-1.3962634e-01 -3.1044000e+01
-1.2217305e-01 -2.9233000e+01
-1.0471976e-01 -2.7186000e+01
-8.7266463e-02 -2.4390000e+01
-6.9813170e-02 -2.0456000e+01
-5.2359878e-02 -1.8299000e+01
-3.4906585e-02 -1.6588000e+01
-1.7453293e-02 -1.5589000e+01
 0.0000000e+00 -1.5010000e+01
 1.7453293e-02 -1.5522000e+01
 3.4906585e-02 -1.6545000e+01
 5.2359878e-02 -1.8451000e+01
 6.9813170e-02 -2.0398000e+01
 8.7266463e-02 -2.3529000e+01
 1.0471976e-01 -2.7498000e+01
 1.2217305e-01 -3.1150000e+01
 1.3962634e-01 -3.0597000e+01
 1.5707963e-01 -2.7828000e+01
 1.7453293e-01 -2.5114000e+01
 1.9198622e-01 -2.2005000e+01
 2.0943951e-01 -1.8869000e+01
 2.2689280e-01 -1.7202000e+01
 2.4434610e-01 -1.5480000e+01
 2.6179939e-01 -1.5099000e+01
 2.7925268e-01 -1.5043000e+01
 2.9670597e-01 -1.5326000e+01
 3.1415927e-01 -1.7032000e+01
 3.3161256e-01 -1.9180000e+01
 3.4906585e-01 -2.2791000e+01
 3.6651914e-01 -2.9969000e+01
 3.8397244e-01 -4.0570000e+01
 4.0142573e-01 -2.8202000e+01
 4.1887902e-01 -2.4550000e+01
 4.3633231e-01 -2.3654000e+01
 4.5378561e-01 -2.2880000e+01
 4.7123890e-01 -2.4595000e+01
 4.8869219e-01 -2.7298000e+01
 5.0614548e-01 -3.3654000e+01
 5.2359878e-01 -2.9186000e+01
 5.4105207e-01 -2.5768000e+01
 5.5850536e-01 -2.2464000e+01
 5.7595865e-01 -2.0015000e+01
 5.9341195e-01 -1.9065000e+01
 6.1086524e-01 -1.8693000e+01
 6.2831853e-01 -1.8166000e+01
 6.4577182e-01 -1.7981000e+01
 6.6322512e-01 -1.8709000e+01
 6.8067841e-01 -1.9427000e+01
 6.9813170e-01 -2.0275000e+01
 7.1558499e-01 -2.0525000e+01
 7.3303829e-01 -2.1286000e+01
 7.5049158e-01 -2.0114000e+01
 7.6794487e-01 -1.9602000e+01
 7.8539816e-01 -1.9083000e+01
 8.0285146e-01 -1.8512000e+01
 8.2030475e-01 -1.7831000e+01
 8.3775804e-01 -1.7371000e+01
 8.5521133e-01 -1.7122000e+01
 8.7266463e-01 -1.7239000e+01
 8.9011792e-01 -1.6616000e+01
 9.0757121e-01 -1.6599000e+01
 9.2502450e-01 -1.6343000e+01
 9.4247780e-01 -1.6963000e+01
 9.5993109e-01 -1.8027000e+01
 9.7738438e-01 -1.8415000e+01
 9.9483767e-01 -1.8921000e+01
 1.0122910e+00 -2.0009000e+01
 1.0297443e+00 -2.1177000e+01
 1.0471976e+00 -2.2800000e+01
 1.0646508e+00 -2.4393000e+01
 1.0821041e+00 -2.5846000e+01
 1.0995574e+00 -2.6019000e+01
 1.1170107e+00 -2.7253000e+01
 1.1344640e+00 -2.6689000e+01
 1.1519173e+00 -2.6706000e+01
 1.1693706e+00 -2.6078000e+01
 1.1868239e+00 -2.5322000e+01
 1.2042772e+00 -2.4387000e+01
 1.2217305e+00 -2.3497000e+01
 1.2391838e+00 -2.4031000e+01
 1.2566371e+00 -2.4419000e+01
 1.2740904e+00 -2.4250000e+01
 1.2915436e+00 -2.4149000e+01
 1.3089969e+00 -2.5007000e+01
 1.3264502e+00 -2.5519000e+01
 1.3439035e+00 -2.5848000e+01
 1.3613568e+00 -2.6866000e+01
 1.3788101e+00 -2.7698000e+01
 1.3962634e+00 -2.8414000e+01
 1.4137167e+00 -2.9136000e+01
 1.4311700e+00 -3.0267000e+01
 1.4486233e+00 -3.0807000e+01
 1.4660766e+00 -3.1715000e+01
 1.4835299e+00 -3.3710000e+01
 1.5009832e+00 -3.3720000e+01
 1.5184364e+00 -3.7343000e+01
 1.5358897e+00 -3.7326000e+01
 1.5533430e+00 -4.1092000e+01
 1.5707963e+00 -4.4958000e+01