-1.5707963e+00 -3.0825000e+01
-1.5533430e+00 -3.0816000e+01
-1.5358897e+00 -2.8963000e+01
-1.5184364e+00 -2.8467000e+01
-1.5009832e+00 -2.8494000e+01
-1.4835299e+00 -2.7078000e+01
-1.4660766e+00 -2.7074000e+01
-1.4486233e+00 -2.7658000e+01
-1.4311700e+00 -2.7015000e+01
-1.4137167e+00 -2.6341000e+01
-1.3962634e+00 -2.6280000e+01
-1.3788101e+00 -2.6056000e+01
-1.3613568e+00 -2.5353000e+01
-1.3439035e+00 -2.4465000e+01
-1.3264502e+00 -2.3762000e+01
-1.3089969e+00 -2.3518000e+01
-1.2915436e+00 -2.2923000e+01
-1.2740904e+00 -2.2271000e+01
-1.2566371e+00 -2.1688000e+01
-1.2391838e+00 -2.0960000e+01
-1.2217305e+00 -2.0369000e+01
-1.2042772e+00 -2.0530000e+01
-1.1868239e+00 -1.9816000e+01
-1.1693706e+00 -1.9711000e+01
-1.1519173e+00 -1.9374000e+01
-1.1344640e+00 -1.9399000e+01
-1.1170107e+00 -1.9754000e+01
-1.0995574e+00 -2.0074000e+01
-1.0821041e+00 -2.0930000e+01
-1.0646508e+00 -2.0475000e+01
-1.0471976e+00 -2.0196000e+01
-1.0297443e+00 -2.0043000e+01
-1.0122910e+00 -1.9484000e+01
-9.9483767e-01 -2.0351000e+01
-9.7738438e-01 -2.0542000e+01
-9.5993109e-01 -2.0510000e+01
-9.4247780e-01 -2.0948000e+01
-9.2502450e-01 -2.1504000e+01
-9.0757121e-01 -2.2030000e+01
-8.9011792e-01 -2.2542000e+01
-8.7266463e-01 -2.2410000e+01
-8.5521133e-01 -2.1331000e+01
-8.3775804e-01 -2.1917000e+01
-8.2030475e-01 -2.1548000e+01
-8.0285146e-01 -2.0568000e+01
-7.8539816e-01 -2.1370000e+01
-7.6794487e-01 -2.0216000e+01
-7.5049158e-01 -2.0436000e+01
-7.3303829e-01 -1.9325000e+01
-7.1558499e-01 -1.9842000e+01
-6.9813170e-01 -1.9109000e+01
-6.8067841e-01 -1.9345000e+01
-6.6322512e-01 -1.8863000e+01
-6.4577182e-01 -1.9436000e+01
-6.2831853e-01 -2.0078000e+01
-6.1086524e-01 -2.0942000e+01
-5.9341195e-01 -2.2858000e+01
-5.7595865e-01 -2.4649000e+01
-5.5850536e-01 -2.5091000e+01
-5.4105207e-01 -2.3499000e+01
-5.2359878e-01 -2.1606000e+01
-5.0614548e-01 -2.0462000e+01
-4.8869219e-01 -2.1312000e+01
-4.7123890e-01 -2.3175000e+01
-4.5378561e-01 -2.5931000e+01
-4.3633231e-01 -2.8503000e+01
-4.1887902e-01 -2.5778000e+01
-4.0142573e-01 -2.3876000e+01
-3.8397244e-01 -2.0353000e+01
-3.6651914e-01 -1.9442000e+01
-3.4906585e-01 -1.9429000e+01
-3.3161256e-01 -1.9682000e+01
-3.1415927e-01 -2.1009000e+01
-2.9670597e-01 -2.4926000e+01
-2.7925268e-01 -3.4171000e+01
-2.6179939e-01 -2.6525000e+01
-2.4434610e-01 -2.0090000e+01
-2.2689280e-01 -1.8270000e+01
-2.0943951e-01 -1.6668000e+01
-1.9198622e-01 -1.6608000e+01
-1.7453293e-01 -1.6909000e+01
-1.5707963e-01 -1.8943000e+01
-1.3962634e-01 -2.4020000e+01
-1.2217305e-01 -4.2083000e+01
-1.0471976e-01 -2.2454000e+01
-8.7266463e-02 -1.7221000e+01
-6.9813170e-02 -1.4427000e+01
-5.2359878e-02 -1.3046000e+01
-3.4906585e-02 -1.2669000e+01
-1.7453293e-02 -1.3201000e+01
 0.0000000e+00 -1.4352000e+01
 1.7453293e-02 -1.6603000e+01
 3.4906585e-02 -1.9897000e+01
 5.2359878e-02 -2.4290000e+01
 6.9813170e-02 -2.5524000e+01
 8.7266463e-02 -2.2400000e+01
 1.0471976e-01 -1.9977000e+01
 1.2217305e-01 -2.0273000e+01
 1.3962634e-01 -2.1873000e+01
 1.5707963e-01 -2.3331000e+01
 1.7453293e-01 -2.5519000e+01
 1.9198622e-01 -2.7083000e+01
 2.0943951e-01 -2.5897000e+01
 2.2689280e-01 -2.3738000e+01
 2.4434610e-01 -2.1385000e+01
 2.6179939e-01 -1.8723000e+01
 2.7925268e-01 -1.6898000e+01
 2.9670597e-01 -1.5002000e+01
 3.1415927e-01 -1.3738000e+01
 3.3161256e-01 -1.3563000e+01
 3.4906585e-01 -1.3888000e+01
 3.6651914e-01 -1.4999000e+01
 3.8397244e-01 -1.6918000e+01
 4.0142573e-01 -2.1505000e+01
 4.1887902e-01 -2.8407000e+01
 4.3633231e-01 -2.3475000e+01
 4.5378561e-01 -1.7511000e+01
 4.7123890e-01 -1.4740000e+01
 4.8869219e-01 -1.2753000e+01
 5.0614548e-01 -1.2152000e+01
 5.2359878e-01 -1.1812000e+01
 5.4105207e-01 -1.2210000e+01
 5.5850536e-01 -1.2678000e+01
 5.7595865e-01 -1.4657000e+01
 5.9341195e-01 -1.7389000e+01
 6.1086524e-01 -2.2011000e+01
 6.2831853e-01 -3.2018000e+01
 6.4577182e-01 -2.4795000e+01
 6.6322512e-01 -1.9888000e+01
 6.8067841e-01 -1.7224000e+01
 6.9813170e-01 -1.6176000e+01
 7.1558499e-01 -1.5333000e+01
 7.3303829e-01 -1.4981000e+01
 7.5049158e-01 -1.4839000e+01
 7.6794487e-01 -1.4657000e+01
 7.8539816e-01 -1.5014000e+01
 8.0285146e-01 -1.5293000e+01
 8.2030475e-01 -1.5413000e+01
 8.3775804e-01 -1.5918000e+01
 8.5521133e-01 -1.6474000e+01
 8.7266463e-01 -1.6748000e+01
 8.9011792e-01 -1.7138000e+01
 9.0757121e-01 -1.7218000e+01
 9.2502450e-01 -1.7202000e+01
 9.4247780e-01 -1.7273000e+01
 9.5993109e-01 -1.7056000e+01
 9.7738438e-01 -1.7801000e+01
 9.9483767e-01 -1.7528000e+01
 1.0122910e+00 -1.7173000e+01
 1.0297443e+00 -1.7107000e+01
 1.0471976e+00 -1.7258000e+01
 1.0646508e+00 -1.7870000e+01
 1.0821041e+00 -1.7589000e+01
 1.0995574e+00 -1.8514000e+01
 1.1170107e+00 -1.8973000e+01
 1.1344640e+00 -2.0544000e+01
 1.1519173e+00 -2.1044000e+01
 1.1693706e+00 -2.2189000e+01
 1.1868239e+00 -2.2919000e+01
 1.2042772e+00 -2.6141000e+01
 1.2217305e+00 -2.9199000e+01
 1.2391838e+00 -3.3850000e+01
 1.2566371e+00 -3.4819000e+01
 1.2740904e+00 -4.1711000e+01
 1.2915436e+00 -3.9252000e+01
 1.3089969e+00 -3.6406000e+01
 1.3264502e+00 -3.1114000e+01
 1.3439035e+00 -3.0034000e+01
 1.3613568e+00 -3.0112000e+01
 1.3788101e+00 -3.1233000e+01
 1.3962634e+00 -3.1380000e+01
 1.4137167e+00 -2.9653000e+01
 1.4311700e+00 -3.1471000e+01
 1.4486233e+00 -3.1519000e+01
 1.4660766e+00 -3.2439000e+01
 1.4835299e+00 -3.6513000e+01
 1.5009832e+00 -3.1909000e+01
 1.5184364e+00 -3.6506000e+01
 1.5358897e+00 -3.6118000e+01
 1.5533430e+00 -3.8798000e+01
 1.5707963e+00 -4.5992000e+01
