<?xml version="1.0" encoding="utf-8"?>
<COLLADA xmlns="http://www.collada.org/2005/11/COLLADASchema" version="1.4.1" xmlns:xsi="http://www.w3.org/2001/XMLSchema-instance">
  <asset>
    <contributor>
      <author>Blender User</author>
      <authoring_tool>Blender 2.79.0 commit date:2018-03-22, commit time:14:10, hash:f4dc9f9d68b</authoring_tool>
    </contributor>
    <created>2020-01-14T11:57:15</created>
    <modified>2020-01-14T11:57:15</modified>
    <unit name="meter" meter="1"/>
    <up_axis>Z_UP</up_axis>
  </asset>
  <library_cameras>
    <camera id="Camera-camera" name="Camera">
      <optics>
        <technique_common>
          <perspective>
            <xfov sid="xfov">49.13434</xfov>
            <aspect_ratio>1.777778</aspect_ratio>
            <znear sid="znear">0.1</znear>
            <zfar sid="zfar">100</zfar>
          </perspective>
        </technique_common>
      </optics>
      <extra>
        <technique profile="blender">
          <shiftx sid="shiftx" type="float">0</shiftx>
          <shifty sid="shifty" type="float">0</shifty>
          <YF_dofdist sid="YF_dofdist" type="float">0</YF_dofdist>
        </technique>
      </extra>
    </camera>
  </library_cameras>
  <library_lights>
    <light id="Lamp-light" name="Lamp">
      <technique_common>
        <point>
          <color sid="color">1 1 1</color>
          <constant_attenuation>1</constant_attenuation>
          <linear_attenuation>0</linear_attenuation>
          <quadratic_attenuation>0.00111109</quadratic_attenuation>
        </point>
      </technique_common>
      <extra>
        <technique profile="blender">
          <type sid="type" type="int">0</type>
          <flag sid="flag" type="int">0</flag>
          <mode sid="mode" type="int">8192</mode>
          <gamma sid="blender_gamma" type="float">1</gamma>
          <red sid="red" type="float">1</red>
          <green sid="green" type="float">1</green>
          <blue sid="blue" type="float">1</blue>
          <shadow_r sid="blender_shadow_r" type="float">0</shadow_r>
          <shadow_g sid="blender_shadow_g" type="float">0</shadow_g>
          <shadow_b sid="blender_shadow_b" type="float">0</shadow_b>
          <energy sid="blender_energy" type="float">1</energy>
          <dist sid="blender_dist" type="float">29.99998</dist>
          <spotsize sid="spotsize" type="float">75</spotsize>
          <spotblend sid="spotblend" type="float">0.15</spotblend>
          <halo_intensity sid="blnder_halo_intensity" type="float">1</halo_intensity>
          <att1 sid="att1" type="float">0</att1>
          <att2 sid="att2" type="float">1</att2>
          <falloff_type sid="falloff_type" type="int">2</falloff_type>
          <clipsta sid="clipsta" type="float">1.000799</clipsta>
          <clipend sid="clipend" type="float">30.002</clipend>
          <bias sid="bias" type="float">1</bias>
          <soft sid="soft" type="float">3</soft>
          <compressthresh sid="compressthresh" type="float">0.04999995</compressthresh>
          <bufsize sid="bufsize" type="int">2880</bufsize>
          <samp sid="samp" type="int">3</samp>
          <buffers sid="buffers" type="int">1</buffers>
          <filtertype sid="filtertype" type="int">0</filtertype>
          <bufflag sid="bufflag" type="int">0</bufflag>
          <buftype sid="buftype" type="int">2</buftype>
          <ray_samp sid="ray_samp" type="int">1</ray_samp>
          <ray_sampy sid="ray_sampy" type="int">1</ray_sampy>
          <ray_sampz sid="ray_sampz" type="int">1</ray_sampz>
          <ray_samp_type sid="ray_samp_type" type="int">0</ray_samp_type>
          <area_shape sid="area_shape" type="int">1</area_shape>
          <area_size sid="area_size" type="float">0.1</area_size>
          <area_sizey sid="area_sizey" type="float">0.1</area_sizey>
          <area_sizez sid="area_sizez" type="float">1</area_sizez>
          <adapt_thresh sid="adapt_thresh" type="float">0.000999987</adapt_thresh>
          <ray_samp_method sid="ray_samp_method" type="int">1</ray_samp_method>
          <shadhalostep sid="shadhalostep" type="int">0</shadhalostep>
          <sun_effect_type sid="sun_effect_type" type="int">0</sun_effect_type>
          <skyblendtype sid="skyblendtype" type="int">1</skyblendtype>
          <horizon_brightness sid="horizon_brightness" type="float">1</horizon_brightness>
          <spread sid="spread" type="float">1</spread>
          <sun_brightness sid="sun_brightness" type="float">1</sun_brightness>
          <sun_size sid="sun_size" type="float">1</sun_size>
          <backscattered_light sid="backscattered_light" type="float">1</backscattered_light>
          <sun_intensity sid="sun_intensity" type="float">1</sun_intensity>
          <atm_turbidity sid="atm_turbidity" type="float">2</atm_turbidity>
          <atm_extinction_factor sid="atm_extinction_factor" type="float">1</atm_extinction_factor>
          <atm_distance_factor sid="atm_distance_factor" type="float">1</atm_distance_factor>
          <skyblendfac sid="skyblendfac" type="float">1</skyblendfac>
          <sky_exposure sid="sky_exposure" type="float">1</sky_exposure>
          <sky_colorspace sid="sky_colorspace" type="int">0</sky_colorspace>
        </technique>
      </extra>
    </light>
  </library_lights>
  <library_images/>
  <library_geometries>
    <geometry id="Patch_Antenna_Modell-mesh" name="Patch Antenna Modell">
      <mesh>
        <source id="Patch_Antenna_Modell-mesh-positions">
          <float_array id="Patch_Antenna_Modell-mesh-positions-array" count="564">-44.375 -44.15 13.16729 -44.375 44.15 13.16729 -44.375 44.15 0 -44.375 43.55436 13.95313 -44.375 10.98252 18.49935 -44.375 0.9055593 25.79523 -44.375 5.447705 25.62726 -44.375 -3.639022 25.72296 -44.375 -17.16142 24.07003 -44.375 -12.68517 24.85916 -44.375 -8.173524 25.41065 -44.375 -21.58933 23.04557 -44.375 31.52119 19.81404 -44.375 35.70449 18.03664 -44.375 22.90231 22.69389 -44.375 27.24983 21.3679 -44.375 39.78805 16.04066 -44.375 9.97463 25.2195 -44.375 14.47368 24.5731 -44.375 18.93229 23.68986 -44.375 -31.94232 19.64683 -44.375 -27.67919 21.22318 -44.375 -40.18919 15.82993 -44.375 -36.11602 17.84749 -44.375 -44.15 13.59999 -44.375 -23.33872 22.57206 -44.375 44.15 13.59999 -44.375 -44.15 0 0 -44.15 0 44.375 -44.15 0 44.375 -44.15 13.16729 0 -44.15 13.59999 44.375 -44.15 13.59999 0 44.15 0 44.375 44.15 0 44.375 5 0 44.375 43.55436 13.95313 44.375 44.15 13.59999 0 44.15 13.59999 -42.775 -40.18919 15.82993 -42.775 -36.11602 17.84749 -42.775 -31.94232 19.64683 -42.775 -27.67919 21.22318 -42.775 -23.33872 22.57206 -42.775 -21.58933 23.04557 -42.775 -17.16142 24.07003 -42.775 -12.68517 24.85916 -42.775 -8.173524 25.41065 -42.775 -3.639022 25.72296 -42.775 0.9055593 25.79523 -42.775 5.447705 25.62726 -42.775 9.97463 25.2195 -42.775 14.47368 24.5731 -42.775 18.93229 23.68986 -42.775 22.90231 22.69389 -42.775 27.24983 21.3679 -42.775 31.52119 19.81404 -42.775 35.70449 18.03664 -42.775 39.78805 16.04066 44.375 39.78805 16.04066 42.775 42.55 14.53408 -42.775 42.55 14.53408 44.375 35.70449 18.03664 42.775 39.78805 16.04066 42.775 35.70449 18.03664 42.775 31.52119 19.81404 44.375 27.24983 21.3679 44.375 31.52119 19.81404 42.775 27.24983 21.3679 42.775 22.90231 22.69389 42.775 18.93229 23.68986 44.375 18.93229 23.68986 44.375 22.90231 22.69389 44.375 14.47368 24.5731 42.775 14.47368 24.5731 42.775 9.97463 25.2195 44.375 9.97463 25.2195 42.775 5.447705 25.62726 42.775 0.9055593 25.79523 44.375 0.9055593 25.79523 44.375 5.447705 25.62726 42.775 -3.639022 25.72296 44.375 -3.639022 25.72296 42.775 -8.173524 25.41065 44.375 -8.173524 25.41065 42.775 -12.68517 24.85916 44.375 -12.68517 24.85916 42.775 -17.16142 24.07003 42.775 -21.58933 23.04557 44.375 -21.58933 23.04557 44.375 -17.16142 24.07003 42.775 -23.33872 22.57206 42.775 -27.67919 21.22318 44.375 -27.67919 21.22318 42.775 -31.94232 19.64683 44.375 -36.11602 17.84749 44.375 -31.94232 19.64683 42.775 -36.11602 17.84749 42.775 -40.18919 15.82993 -42.775 -42.55 14.53408 42.775 -42.55 14.53408 44.375 -40.18919 15.82993 44.375 -23.33872 22.57206 44.375 44.15 13.16729 -42.775 42.55 1.6 -42.775 -42.55 1.6 42.775 -42.55 1.6 42.775 42.55 1.6 42.775 -5 1.6 42.775 5 1.6 44.375 -5 3.5 42.775 -5 3.5 44.375 5 3.5 42.775 5 3.5 42.775 -0.9734035 7.004172 42.775 0 6.85 42.775 0.9734035 7.004172 42.775 -1.851523 7.451596 42.775 2.548403 11.85152 42.775 1.851523 12.5484 42.775 2.995828 9.026597 42.775 -2.995828 9.026597 42.775 -2.995828 10.9734 42.775 -0.9734035 12.99583 42.775 0.9734035 12.99583 42.775 2.995828 10.9734 42.775 2.548403 8.148477 42.775 1.851523 7.451596 42.775 -2.548403 8.148477 42.775 -1.851523 12.5484 42.775 0 13.15 42.775 3.15 10 42.775 -2.548403 11.85152 42.775 -3.15 10 44.375 -0.9734035 7.004172 44.375 0 6.85 44.375 -1.851523 7.451596 44.375 -2.548403 8.148477 44.375 -2.995828 9.026597 44.375 -3.15 10 44.375 -2.995828 10.9734 44.375 -2.548403 11.85152 44.375 -1.851523 12.5484 44.375 -0.9734035 12.99583 44.375 0 13.15 44.375 2.995828 9.026597 44.375 3.15 10 44.375 2.548403 8.148477 44.375 1.851523 7.451596 44.375 0.9734035 7.004172 44.375 0.9734035 12.99583 44.375 1.851523 12.5484 44.375 2.548403 11.85152 44.375 2.995828 10.9734 44.375 10.98252 18.49935 36 -6.5 11.55 35.45 -3.45 11.55 36 -3.45 11.55 35.45 -3.45 12.1 36 -3.45 12.1 35.45 3.45 7.7 35.45 0.4330127 9.75 35.45 0.5 10 35.45 -3.45 7.7 35.45 -0.5 10 35.45 0 10.5 35.45 0 9.5 35.45 0.25 9.566987 35.45 -0.25 9.566987 35.45 -0.4330127 10.25 35.45 -0.25 10.43301 35.45 0.4330127 10.25 35.45 0.25 10.43301 35.45 -0.4330127 9.75 36 -3.45 7.7 36 3.45 7.7 36 -0.5 10 36 -0.4330127 9.75 36 -0.25 9.566987 36 0 9.5 36 0 10.5 36 -0.25 10.43301 36 -0.4330127 10.25 36 0.25 9.566987 36 0.4330127 9.75 36 0.5 10 36 0.4330127 10.25 36 0.25 10.43301</float_array>
          <technique_common>
            <accessor source="#Patch_Antenna_Modell-mesh-positions-array" count="188" stride="3">
              <param name="X" type="float"/>
              <param name="Y" type="float"/>
              <param name="Z" type="float"/>
            </accessor>
          </technique_common>
        </source>
        <source id="Patch_Antenna_Modell-mesh-normals">
          <float_array id="Patch_Antenna_Modell-mesh-normals-array" count="543">-1 0 0 -1 1.75897e-6 0 -1 -8.16188e-7 0 -1 8.09143e-7 0 -1 -1.42608e-7 0 -1 -3.86849e-7 0 -1 -1.01172e-6 0 -1 8.90341e-6 0 -1 1.48011e-5 0 0 -1 0 0 0.5099813 0.8601855 0 -0.4438632 0.8960946 0 -0.395891 0.9182977 0 -0.3468148 0.9379336 0 -0.2967666 0.9549502 0 -0.2612686 0.9652662 0 -0.2254105 0.9742639 0 -0.1736161 0.9848135 0 -0.1213335 0.9926118 0 -0.06871283 0.9976365 0 -0.01590031 0.9998736 0 0.03695636 0.9993169 0 0.08971023 0.9959679 0 0.1422141 0.989836 0 0.1943206 0.9809381 0 0.2433327 0.969943 0 0.2917308 0.9565004 0 0.3418655 0.9397489 0 0.3910474 0.9203706 0 0.4391351 0.8984211 0.01326483 0.4847374 0.8745591 0 0.5006995 0.8656212 0 0.478867 0.8778875 -0.01326483 0.4847366 0.8745597 0 0.5006957 0.8656234 0 0.4391347 0.8984214 0 0.391047 0.9203707 0 0.3418674 0.9397482 0 0.2433325 0.9699429 0 0.1943207 0.9809381 0 0.1422141 0.9898359 0 0.08971083 0.9959679 0 -0.01590031 0.9998736 0 -0.1736151 0.9848136 0 -0.2254102 0.974264 -0.01812571 -0.4905138 0.871245 0 -0.504176 0.863601 0 -0.5041742 0.8636019 0 -0.5041737 0.8636023 0 -0.4811792 0.8766223 0.01812571 -0.4905145 0.8712445 0 -0.4438611 0.8960956 0 -0.2967675 0.9549499 0 -0.2612673 0.9652665 0 -0.1213335 0.9926119 0 -0.06871283 0.9976366 0 0.03695654 0.9993169 0 0.2917318 0.9565002 0 1 0 1 -7.74014e-7 0 1 5.89673e-7 0 1 4.22607e-7 0 1 0 0 1 3.08106e-7 0 1 1.3567e-6 0 1 2.96856e-7 0 1 -5.0308e-7 0 1 1.14177e-6 0 1 -9.5108e-7 0 1 -2.29465e-6 0 1 1.85931e-6 0 1 -7.86686e-7 0 1 -1.70856e-6 0 1 3.99773e-6 0 -1 -3.07503e-6 0 -1 3.07503e-6 0 -1 -2.22097e-7 0 -1 0 0 -1 -2.08511e-6 0 -1 3.10078e-6 0 -1 3.60503e-6 0 -1 2.29471e-6 0 -1 9.30165e-7 0 -1 -2.01193e-6 0 -1 -9.19802e-7 0 -1 7.06836e-6 0 -1 -2.5016e-6 0 -1 9.53704e-6 0 -1 4.7533e-7 0 -1 1.08283e-6 0 -1 -1.13534e-6 0 -1 -1.72098e-6 0 -1 9.07541e-7 0 -1 -5.65401e-6 0 -1 -4.94878e-7 0 -1 0 0 -1 -2.55576e-7 0 -1 -2.8812e-6 0 -1 -3.07468e-6 0 -1 9.86027e-7 0 -1 3.74788e-6 0 -1 -3.41712e-6 0 -1 2.83289e-6 0 0 0.1564348 0.9876883 0 0.45399 0.8910068 0 0.7071062 0.7071074 0 0.8910066 0.4539903 0 0.9876884 0.1564343 0 0.9876884 0.1564344 0 0.7071077 0.7071059 0 0.1564342 0.9876884 0 0.9876885 -0.1564337 0 0.8910066 -0.4539903 0 0.7071065 -0.7071071 0 0.45399 -0.8910068 0 0.1564348 -0.9876883 0 0.1564342 -0.9876884 0 0.7071074 -0.7071062 0 0.9876883 -0.156435 0 -0.9876885 0.1564337 0 -0.8910066 0.4539903 0 -0.7071065 0.7071071 0 -0.45399 0.8910068 0 -0.1564348 0.9876883 0 -0.1564342 0.9876884 0 -0.7071074 0.7071062 0 -0.9876883 0.156435 0 -0.1564348 -0.9876883 0 -0.45399 -0.8910068 0 -0.7071062 -0.7071074 0 -0.8910066 -0.4539903 0 -0.9876884 -0.1564343 0 -0.9876884 -0.1564344 0 -0.7071077 -0.7071059 0 -0.1564342 -0.9876884 1 3.68114e-7 0 1 -1.39921e-5 0 1 5.88795e-6 0 1 -1.95447e-6 0 1 2.14716e-7 0 1 -1.95938e-7 0 1 2.05534e-7 0 1 3.08389e-6 0 1 1.56382e-6 0 1 -7.5693e-6 0 1 -1.21411e-7 0 1 -2.3852e-7 0 1 4.89566e-7 0 1 -5.0586e-7 0 1 0 0 1 -4.08841e-7 0 1 1.94093e-6 0 1 6.47315e-7 0 1 7.40055e-6 0 1 6.67756e-6 0 0 0 -1 -1 -5.69468e-5 0 0 -0.9659254 -0.2588206 0 -0.7071058 -0.7071079 0 -0.258815 -0.965927 0 -0.2588213 -0.9659253 0 -0.7071089 -0.7071048 0 -0.9659262 -0.2588176 0 -0.258815 0.965927 0 -0.7071056 0.7071081 0 -0.9659253 0.258821 0 -0.9659263 0.2588172 0 -0.7071091 0.7071045 0 -0.2588213 0.9659253 0 0.258815 -0.965927 0 0.7071056 -0.7071081 0 0.9659253 -0.258821 0 0.9659263 -0.2588172 0 0.7071091 -0.7071045 0 0.2588213 -0.9659253 0 0.9659254 0.2588206 0 0.7071058 0.7071079 0 0.258815 0.965927 0 0.2588213 0.9659253 0 0.7071089 0.7071048 0 0.9659262 0.2588176</float_array>
          <technique_common>
            <accessor source="#Patch_Antenna_Modell-mesh-normals-array" count="181" stride="3">
              <param name="X" type="float"/>
              <param name="Y" type="float"/>
              <param name="Z" type="float"/>
            </accessor>
          </technique_common>
        </source>
        <vertices id="Patch_Antenna_Modell-mesh-vertices">
          <input semantic="POSITION" source="#Patch_Antenna_Modell-mesh-positions"/>
        </vertices>
        <triangles count="333">
          <input semantic="VERTEX" source="#Patch_Antenna_Modell-mesh-vertices" offset="0"/>
          <input semantic="NORMAL" source="#Patch_Antenna_Modell-mesh-normals" offset="1"/>
          <p>0 0 1 0 2 0 1 0 0 0 3 0 4 1 5 1 6 1 4 2 7 2 5 2 4 3 8 3 9 3 9 0 10 0 4 0 10 0 7 0 4 0 4 4 11 4 8 4 4 0 12 0 13 0 4 0 14 0 15 0 15 0 12 0 4 0 13 0 16 0 4 0 4 5 17 5 18 5 18 6 19 6 4 6 19 0 14 0 4 0 16 0 3 0 4 0 4 0 20 0 21 0 4 0 22 0 23 0 0 7 24 7 22 7 22 0 4 0 0 0 23 0 20 0 4 0 21 0 25 0 4 0 25 0 11 0 4 0 4 0 3 0 0 0 6 0 17 0 4 0 3 8 26 8 1 8 2 0 27 0 0 0 28 9 29 9 30 9 30 9 31 9 28 9 28 9 31 9 0 9 31 9 24 9 0 9 0 9 27 9 28 9 30 9 32 9 31 9 36 10 37 10 38 10 38 10 3 10 36 10 39 11 40 11 23 11 23 12 40 12 41 12 21 13 20 13 41 13 42 14 43 14 25 14 25 15 43 15 44 15 45 16 8 16 11 16 9 17 8 17 45 17 9 18 46 18 47 18 10 19 47 19 48 19 48 20 49 20 5 20 50 21 6 21 5 21 17 22 6 22 50 22 17 23 51 23 52 23 18 24 52 24 53 24 54 25 14 25 19 25 14 26 54 26 55 26 55 27 56 27 12 27 13 28 12 28 56 28 13 29 57 29 58 29 59 30 36 30 60 30 3 31 61 31 60 31 16 32 58 32 61 32 61 33 3 33 16 33 60 34 36 34 3 34 62 35 59 35 63 35 62 36 64 36 65 36 66 37 67 37 65 37 66 26 68 26 69 26 70 38 71 38 72 38 73 39 71 39 70 39 73 40 74 40 75 40 76 41 75 41 77 41 78 21 79 21 80 21 78 42 81 42 82 42 83 19 84 19 82 19 83 18 85 18 86 18 86 43 85 43 87 43 88 44 89 44 90 44 89 15 88 15 91 15 91 14 92 14 93 14 93 13 92 13 94 13 95 12 96 12 94 12 95 11 97 11 98 11 22 45 24 45 99 45 100 46 99 46 31 46 99 47 24 47 31 47 31 48 32 48 100 48 101 49 98 49 100 49 100 50 32 50 101 50 99 49 39 49 22 49 98 51 101 51 95 51 94 12 97 12 95 12 94 13 96 13 93 13 93 52 102 52 91 52 91 53 102 53 89 53 90 16 87 16 88 16 87 17 90 17 86 17 86 54 84 54 83 54 82 55 81 55 83 55 82 20 79 20 78 20 80 56 77 56 78 56 77 22 80 22 76 22 75 23 76 23 73 23 70 24 74 24 73 24 72 25 69 25 70 25 69 57 72 57 66 57 65 27 68 27 66 27 65 28 67 28 62 28 63 29 64 29 62 29 60 32 63 32 59 32 58 35 16 35 13 35 56 36 57 36 13 36 12 37 15 37 55 37 55 57 15 57 14 57 19 38 53 38 54 38 53 39 19 39 18 39 52 40 18 40 17 40 50 41 51 41 17 41 5 56 49 56 50 56 5 42 7 42 48 42 48 55 7 55 10 55 47 54 10 54 9 54 45 43 46 43 9 43 11 44 44 44 45 44 44 53 11 53 25 53 25 52 21 52 42 52 41 13 42 13 21 13 41 12 20 12 23 12 23 51 22 51 39 51 38 10 26 10 3 10 33 58 38 58 103 58 38 58 37 58 103 58 33 58 2 58 1 58 1 58 38 58 33 58 1 58 26 58 38 58 103 58 34 58 33 58 104 59 51 59 50 59 104 60 53 60 52 60 104 61 47 61 46 61 52 62 51 62 104 62 104 63 48 63 47 63 50 62 49 62 104 62 105 62 104 62 42 62 49 62 48 62 104 62 105 64 41 64 40 64 104 65 43 65 42 65 46 62 45 62 104 62 104 66 56 66 55 66 104 67 58 67 57 67 42 62 41 62 105 62 104 68 54 68 53 68 57 62 56 62 104 62 40 69 39 69 105 69 55 70 54 70 104 70 104 71 44 71 43 71 104 72 61 72 58 72 45 62 44 62 104 62 39 73 99 73 105 73 111 74 114 74 115 74 113 75 115 75 116 75 111 0 117 0 114 0 118 0 119 0 75 0 69 76 113 76 120 76 115 0 113 0 111 0 111 0 91 0 121 0 122 77 88 77 87 77 83 78 81 78 123 78 78 0 77 0 124 0 119 0 124 0 77 0 75 0 74 0 118 0 125 79 118 79 70 79 113 80 126 80 120 80 116 0 127 0 113 0 121 0 128 0 111 0 122 81 91 81 88 81 129 82 85 82 83 82 81 0 78 0 130 0 77 83 75 83 119 83 70 84 69 84 125 84 120 85 131 85 69 85 128 0 117 0 111 0 87 86 132 86 122 86 132 0 87 0 85 0 130 87 123 87 81 87 109 88 64 88 63 88 68 89 109 89 113 89 92 90 91 90 111 90 106 91 98 91 97 91 74 92 70 92 118 92 127 0 126 0 113 0 122 93 133 93 91 93 123 0 129 0 83 0 109 94 65 94 64 94 113 95 69 95 68 95 108 96 94 96 92 96 97 0 108 0 106 0 131 97 125 97 69 97 85 98 129 98 132 98 68 0 65 0 109 0 97 99 94 99 108 99 133 0 121 0 91 0 63 0 107 0 109 0 106 100 100 100 98 100 63 101 60 101 107 101 124 0 130 0 78 0 111 102 108 102 92 102 134 103 135 103 115 103 136 104 134 104 114 104 137 105 136 105 117 105 138 106 137 106 128 106 139 107 138 107 121 107 121 108 133 108 139 108 128 106 121 106 138 106 117 109 128 109 137 109 114 104 117 104 136 104 115 110 114 110 134 110 140 111 139 111 133 111 141 112 140 112 122 112 142 113 141 113 132 113 143 114 142 114 129 114 144 115 143 115 123 115 123 116 130 116 144 116 129 114 123 114 143 114 132 117 129 117 142 117 122 112 132 112 141 112 133 118 122 118 140 118 145 119 146 119 131 119 147 120 145 120 120 120 148 121 147 121 126 121 149 122 148 122 127 122 135 123 149 123 116 123 116 124 115 124 135 124 127 122 116 122 149 122 126 125 127 125 148 125 120 120 126 120 147 120 131 126 120 126 145 126 150 127 144 127 130 127 151 128 150 128 124 128 152 129 151 129 119 129 153 130 152 130 118 130 146 131 153 131 125 131 125 132 131 132 146 132 118 130 125 130 153 130 119 133 118 133 152 133 124 128 119 128 151 128 130 134 124 134 150 134 34 62 135 62 112 62 34 62 145 62 147 62 34 135 146 135 145 135 147 62 148 62 34 62 148 62 149 62 34 62 34 136 150 136 151 136 151 137 152 137 34 137 152 138 153 138 34 138 153 62 146 62 34 62 103 62 144 62 150 62 103 62 30 62 144 62 150 139 34 139 103 139 30 62 143 62 144 62 30 140 142 140 143 140 30 141 140 141 141 141 30 62 139 62 140 62 141 62 142 62 30 62 30 62 110 62 137 62 137 62 138 62 30 62 110 142 136 142 137 142 110 143 134 143 136 143 138 62 139 62 30 62 110 62 112 62 135 62 135 144 134 144 110 144 149 62 135 62 34 62 110 62 30 62 29 62 30 145 154 145 101 145 154 62 96 62 95 62 95 62 101 62 154 62 154 146 102 146 93 146 93 62 96 62 154 62 154 147 89 147 102 147 30 62 36 62 154 62 154 148 71 148 73 148 154 62 72 62 71 62 154 62 67 62 66 62 154 62 59 62 62 62 62 62 67 62 154 62 154 62 36 62 59 62 66 62 72 62 154 62 154 149 84 149 86 149 154 150 82 150 84 150 154 62 76 62 80 62 80 151 79 151 154 151 79 62 82 62 154 62 86 152 90 152 154 152 90 62 89 62 154 62 73 62 76 62 154 62 103 153 37 153 36 153 36 62 30 62 103 62 101 154 32 154 30 154 112 62 35 62 34 62 156 155 157 155 155 155 175 155 174 155 163 155 163 155 160 155 175 155 158 9 156 9 157 9 157 9 159 9 158 9 168 156 173 156 164 156 176 157 164 157 173 157 177 158 173 158 168 158 178 159 168 159 166 159 166 160 179 160 178 160 168 161 178 161 177 161 173 162 177 162 176 162 180 163 165 163 170 163 181 164 170 164 169 164 182 165 169 165 164 165 164 166 176 166 182 166 169 167 182 167 181 167 170 168 181 168 180 168 179 169 166 169 167 169 183 170 167 170 161 170 184 171 161 171 162 171 162 172 185 172 184 172 161 173 184 173 183 173 167 174 183 174 179 174 185 175 162 175 171 175 186 176 171 176 172 176 187 177 172 177 165 177 165 178 180 178 187 178 172 179 187 179 186 179 171 180 186 180 185 180 187 62 183 62 184 62 178 62 181 62 182 62 183 62 187 62 180 62 184 62 185 62 187 62 181 62 178 62 179 62 182 62 176 62 178 62 185 62 186 62 187 62 176 62 177 62 178 62 179 62 183 62 181 62 180 62 181 62 183 62</p>
        </triangles>
      </mesh>
    </geometry>
    <geometry id="Patch_Antenna_Modell_001-mesh" name="Patch Antenna Modell.001">
      <mesh>
        <source id="Patch_Antenna_Modell_001-mesh-positions">
          <float_array id="Patch_Antenna_Modell_001-mesh-positions-array" count="672">-44.375 -44.15 13.16729 -44.375 44.15 13.16729 -44.375 44.15 0 -44.375 43.55436 13.95313 -44.375 10.98252 18.49935 -44.375 0.9055593 25.79523 -44.375 5.447705 25.62726 -44.375 -3.639022 25.72296 -44.375 -17.16142 24.07003 -44.375 -12.68517 24.85916 -44.375 -8.173524 25.41065 -44.375 -21.58933 23.04557 -44.375 31.52119 19.81404 -44.375 35.70449 18.03664 -44.375 22.90231 22.69389 -44.375 27.24983 21.3679 -44.375 39.78805 16.04066 -44.375 9.97463 25.2195 -44.375 14.47368 24.5731 -44.375 18.93229 23.68986 -44.375 -31.94232 19.64683 -44.375 -27.67919 21.22318 -44.375 -40.18919 15.82993 -44.375 -36.11602 17.84749 -44.375 -44.15 13.59999 -44.375 -23.33872 22.57206 -44.375 44.15 13.59999 -44.375 -44.15 0 0 -44.15 0 44.375 -44.15 0 44.375 -44.15 13.16729 0 -44.15 13.59999 44.375 -44.15 13.59999 0 44.15 0 40.875 -5 0 40.875 5 0 44.375 44.15 0 44.375 5 0 44.375 -5 0 44.375 43.55436 13.95313 44.375 44.15 13.59999 0 44.15 13.59999 -42.775 -40.18919 15.82993 -42.775 -36.11602 17.84749 -42.775 -31.94232 19.64683 -42.775 -27.67919 21.22318 -42.775 -23.33872 22.57206 -42.775 -21.58933 23.04557 -42.775 -17.16142 24.07003 -42.775 -12.68517 24.85916 -42.775 -8.173524 25.41065 -42.775 -3.639022 25.72296 -42.775 0.9055593 25.79523 -42.775 5.447705 25.62726 -42.775 9.97463 25.2195 -42.775 14.47368 24.5731 -42.775 18.93229 23.68986 -42.775 22.90231 22.69389 -42.775 27.24983 21.3679 -42.775 31.52119 19.81404 -42.775 35.70449 18.03664 -42.775 39.78805 16.04066 44.375 39.78805 16.04066 42.775 42.55 14.53408 -42.775 42.55 14.53408 44.375 35.70449 18.03664 42.775 39.78805 16.04066 42.775 35.70449 18.03664 42.775 31.52119 19.81404 44.375 27.24983 21.3679 44.375 31.52119 19.81404 42.775 27.24983 21.3679 42.775 22.90231 22.69389 42.775 18.93229 23.68986 44.375 18.93229 23.68986 44.375 22.90231 22.69389 44.375 14.47368 24.5731 42.775 14.47368 24.5731 42.775 9.97463 25.2195 44.375 9.97463 25.2195 42.775 5.447705 25.62726 42.775 0.9055593 25.79523 44.375 0.9055593 25.79523 44.375 5.447705 25.62726 42.775 -3.639022 25.72296 44.375 -3.639022 25.72296 42.775 -8.173524 25.41065 44.375 -8.173524 25.41065 42.775 -12.68517 24.85916 44.375 -12.68517 24.85916 42.775 -17.16142 24.07003 42.775 -21.58933 23.04557 44.375 -21.58933 23.04557 44.375 -17.16142 24.07003 42.775 -23.33872 22.57206 42.775 -27.67919 21.22318 44.375 -27.67919 21.22318 42.775 -31.94232 19.64683 44.375 -36.11602 17.84749 44.375 -31.94232 19.64683 42.775 -36.11602 17.84749 42.775 -40.18919 15.82993 -42.775 -42.55 14.53408 42.775 -42.55 14.53408 44.375 -40.18919 15.82993 44.375 -23.33872 22.57206 44.375 44.15 13.16729 -42.775 42.55 1.6 -42.775 -42.55 1.6 42.775 -42.55 1.6 42.775 42.55 1.6 40.875 5 1.6 40.875 -5 1.6 42.775 -5 1.6 42.775 5 1.6 44.375 -5 3.5 42.775 -5 3.5 44.375 5 3.5 42.775 5 3.5 42.775 -0.9734035 7.004172 42.775 0 6.85 42.775 0.9734035 7.004172 42.775 -1.851523 7.451596 42.775 2.548403 11.85152 42.775 1.851523 12.5484 42.775 2.995828 9.026597 42.775 -2.995828 9.026597 42.775 -2.995828 10.9734 42.775 -0.9734035 12.99583 42.775 0.9734035 12.99583 42.775 2.995828 10.9734 42.775 2.548403 8.148477 42.775 1.851523 7.451596 42.775 -2.548403 8.148477 42.775 -1.851523 12.5484 42.775 0 13.15 42.775 3.15 10 42.775 -2.548403 11.85152 42.775 -3.15 10 44.375 -0.9734035 7.004172 44.375 0 6.85 44.375 -1.851523 7.451596 44.375 -2.548403 8.148477 44.375 -2.995828 9.026597 44.375 -3.15 10 44.375 -2.995828 10.9734 44.375 -2.548403 11.85152 44.375 -1.851523 12.5484 44.375 -0.9734035 12.99583 44.375 0 13.15 44.375 2.995828 9.026597 44.375 3.15 10 44.375 2.548403 8.148477 44.375 1.851523 7.451596 44.375 0.9734035 7.004172 44.375 0.9734035 12.99583 44.375 1.851523 12.5484 44.375 2.548403 11.85152 44.375 2.995828 10.9734 44.375 10.98252 18.49935 -24.2 27.975 12.1 -24.2 27.975 11.55 -24.2 -27.975 11.55 -24.2 -27.975 12.1 27.8 -27.975 11.55 27.8 -27.975 12.1 27.8 6.5 11.55 27.8 -6.5 11.55 27.8 27.975 11.55 27.8 -6.5 12.1 27.8 6.5 12.1 27.8 27.975 12.1 36 -6.5 11.55 36 -6.5 12.1 35.45 -3.45 11.55 35.45 3.45 11.55 36 6.5 11.55 36 3.45 11.55 36 -3.45 11.55 36 6.5 12.1 35.45 3.45 12.1 35.45 -3.45 12.1 36 -3.45 12.1 36 3.45 12.1 35.45 3.45 7.7 35.45 0.4330127 9.75 35.45 0.5 10 35.45 -3.45 7.7 35.45 -0.5 10 35.45 0 10.5 35.45 0 9.5 35.45 0.25 9.566987 35.45 -0.25 9.566987 35.45 -0.4330127 10.25 35.45 -0.25 10.43301 35.45 0.4330127 10.25 35.45 0.25 10.43301 35.45 -0.4330127 9.75 36 -3.45 7.7 36 3.45 7.7 36 -0.5 10 36 -0.4330127 9.75 36 -0.25 9.566987 36 0 9.5 36 0 10.5 36 -0.25 10.43301 36 -0.4330127 10.25 36 0.25 9.566987 36 0.4330127 9.75 36 0.5 10 36 0.4330127 10.25 36 0.25 10.43301 44.375 -0.5 10 44.375 -0.4330127 9.75 44.375 -0.25 9.566987 44.375 0 9.5 44.375 0 10.5 44.375 -0.25 10.43301 44.375 -0.4330127 10.25 44.375 0.25 9.566987 44.375 0.4330127 9.75 44.375 0.5 10 44.375 0.4330127 10.25 44.375 0.25 10.43301</float_array>
          <technique_common>
            <accessor source="#Patch_Antenna_Modell_001-mesh-positions-array" count="224" stride="3">
              <param name="X" type="float"/>
              <param name="Y" type="float"/>
              <param name="Z" type="float"/>
            </accessor>
          </technique_common>
        </source>
        <source id="Patch_Antenna_Modell_001-mesh-normals">
          <float_array id="Patch_Antenna_Modell_001-mesh-normals-array" count="687">-1 0 0 -1 1.75897e-6 0 -1 -8.16188e-7 0 -1 8.09143e-7 0 -1 -1.42608e-7 0 -1 -3.86849e-7 0 -1 -1.01172e-6 0 -1 8.90341e-6 0 -1 1.48011e-5 0 0 -1 0 0 0 -1 0 0.5099813 0.8601855 0 -0.4438632 0.8960946 0 -0.395891 0.9182977 0 -0.3468148 0.9379336 0 -0.2967666 0.9549502 0 -0.2612686 0.9652662 0 -0.2254105 0.9742639 0 -0.1736161 0.9848135 0 -0.1213335 0.9926118 0 -0.06871283 0.9976365 0 -0.01590031 0.9998736 0 0.03695636 0.9993169 0 0.08971023 0.9959679 0 0.1422141 0.989836 0 0.1943206 0.9809381 0 0.2433327 0.969943 0 0.2917308 0.9565004 0 0.3418655 0.9397489 0 0.3910474 0.9203706 0 0.4391351 0.8984211 0.01326483 0.4847374 0.8745591 0 0.5006995 0.8656212 0 0.478867 0.8778875 -0.01326483 0.4847366 0.8745597 0 0.5006957 0.8656234 0 0.4391347 0.8984214 0 0.391047 0.9203707 0 0.3418674 0.9397482 0 0.2433325 0.9699429 0 0.1943207 0.9809381 0 0.1422141 0.9898359 0 0.08971083 0.9959679 0 -0.01590031 0.9998736 0 -0.1736151 0.9848136 0 -0.2254102 0.974264 -0.01812571 -0.4905138 0.871245 0 -0.504176 0.863601 0 -0.5041742 0.8636019 0 -0.5041737 0.8636023 0 -0.4811792 0.8766223 0.01812571 -0.4905145 0.8712445 0 -0.4438611 0.8960956 0 -0.2967675 0.9549499 0 -0.2612673 0.9652665 0 -0.1213335 0.9926119 0 -0.06871283 0.9976366 0 0.03695654 0.9993169 0 0.2917318 0.9565002 0 1 0 1 -7.74014e-7 0 1 5.89673e-7 0 1 4.22607e-7 0 1 0 0 1 3.08106e-7 0 1 1.3567e-6 0 1 2.96856e-7 0 1 -5.0308e-7 0 1 1.14177e-6 0 1 -9.5108e-7 0 1 -2.29465e-6 0 1 1.85931e-6 0 1 -7.86686e-7 0 1 -1.70856e-6 0 1 3.99773e-6 0 0 0 1 0 0 1 0 0 1 -1 -3.07503e-6 0 -1 3.07503e-6 0 -1 -2.22097e-7 0 -1 0 0 -1 -2.08511e-6 0 -1 3.10078e-6 0 -1 3.60503e-6 0 -1 2.29471e-6 0 -1 9.30165e-7 0 -1 -2.01193e-6 0 -1 -9.19802e-7 0 -1 7.06836e-6 0 -1 -2.5016e-6 0 -1 9.53704e-6 0 -1 4.7533e-7 0 -1 1.08283e-6 0 -1 -1.13534e-6 0 -1 -1.72098e-6 0 -1 9.07541e-7 0 -1 -5.65401e-6 0 -1 -4.94878e-7 0 -1 0 0 -1 -2.55576e-7 0 -1 -2.8812e-6 0 -1 -3.07468e-6 0 -1 9.86027e-7 0 -1 3.74788e-6 0 -1 -3.41712e-6 0 -1 2.83289e-6 0 0 0.1564348 0.9876883 0 0.45399 0.8910068 0 0.7071062 0.7071074 0 0.8910066 0.4539903 0 0.9876884 0.1564343 0 0.9876884 0.1564344 0 0.7071077 0.7071059 0 0.1564342 0.9876884 0 0.9876885 -0.1564337 0 0.8910066 -0.4539903 0 0.7071065 -0.7071071 0 0.45399 -0.8910068 0 0.1564348 -0.9876883 0 0.1564342 -0.9876884 0 0.7071074 -0.7071062 0 0.9876883 -0.156435 0 -0.9876885 0.1564337 0 -0.8910066 0.4539903 0 -0.7071065 0.7071071 0 -0.45399 0.8910068 0 -0.1564348 0.9876883 0 -0.1564342 0.9876884 0 -0.7071074 0.7071062 0 -0.9876883 0.156435 0 -0.1564348 -0.9876883 0 -0.45399 -0.8910068 0 -0.7071062 -0.7071074 0 -0.8910066 -0.4539903 0 -0.9876884 -0.1564343 0 -0.9876884 -0.1564344 0 -0.7071077 -0.7071059 0 -0.1564342 -0.9876884 1 3.68114e-7 0 1 -1.39921e-5 0 1 5.88795e-6 0 1 -1.95447e-6 0 1 2.14716e-7 0 1 -1.95938e-7 0 1 2.05534e-7 0 1 3.08389e-6 0 1 1.56382e-6 0 1 -7.5693e-6 0 1 -1.21411e-7 0 1 -2.3852e-7 0 1 4.89566e-7 0 1 -5.0586e-7 0 1 0 0 1 -4.08841e-7 0 1 1.94093e-6 0 1 6.47315e-7 0 1 7.40055e-6 0 1 6.67756e-6 0 0 0 -1 0 0 -1 0 0 1 0 0 1 -1.53432e-7 0 -1 -1 6.41793e-6 0 -1 1.3435e-6 0 -1 1.40019e-6 0 -1 -1.40019e-6 0 -1 -6.80116e-6 0 -1 -3.62126e-6 0 -1 3.08524e-6 0 -1 9.06824e-6 0 -1 -2.08439e-5 0 -1 2.08439e-5 0 -1 -4.40482e-6 0 -1 5.69468e-5 0 -1 4.40482e-6 0 -1 -5.69468e-5 0 -1 2.40684e-5 0 -1 -2.40684e-5 0 0 -0.9659254 -0.2588206 0 -0.7071058 -0.7071079 0 -0.258815 -0.965927 0 -0.2588213 -0.9659253 0 -0.7071089 -0.7071048 0 -0.9659262 -0.2588176 0 -0.258815 0.965927 0 -0.7071056 0.7071081 0 -0.9659253 0.258821 0 -0.9659263 0.2588172 0 -0.7071091 0.7071045 0 -0.2588213 0.9659253 0 0.258815 -0.965927 0 0.7071056 -0.7071081 0 0.9659253 -0.258821 0 0.9659263 -0.2588172 0 0.7071091 -0.7071045 0 0.2588213 -0.9659253 0 0.9659254 0.2588206 0 0.7071058 0.7071079 0 0.258815 0.965927 0 0.2588213 0.9659253 0 0.7071089 0.7071048 0 0.9659262 0.2588176 1 6.7175e-7 0 1 8.22732e-6 0 1 2.24031e-5 0 0 -0.9659259 -0.258819 0 -0.7071075 -0.7071062 0 -0.2588182 -0.9659261 0 -0.7071074 -0.7071063 0 -0.9659258 -0.2588192 0 -0.2588182 0.9659261 0 -0.7071074 0.7071063 0 -0.9659258 0.2588192 0 -0.9659259 0.258819 0 -0.7071075 0.7071062 0 0.2588182 -0.9659261 0 0.7071074 -0.7071063 0 0.9659258 -0.2588192 0 0.9659259 -0.258819 0 0.7071075 -0.7071062 0 0.9659259 0.258819 0 0.7071075 0.7071062 0 0.2588182 0.9659261 0 0.7071074 0.7071063 0 0.9659258 0.2588192 1 6.01708e-6 0 1 -4.40482e-6 0</float_array>
          <technique_common>
            <accessor source="#Patch_Antenna_Modell_001-mesh-normals-array" count="229" stride="3">
              <param name="X" type="float"/>
              <param name="Y" type="float"/>
              <param name="Z" type="float"/>
            </accessor>
          </technique_common>
        </source>
        <vertices id="Patch_Antenna_Modell_001-mesh-vertices">
          <input semantic="POSITION" source="#Patch_Antenna_Modell_001-mesh-positions"/>
        </vertices>
        <triangles count="492">
          <input semantic="VERTEX" source="#Patch_Antenna_Modell_001-mesh-vertices" offset="0"/>
          <input semantic="NORMAL" source="#Patch_Antenna_Modell_001-mesh-normals" offset="1"/>
          <p>0 0 1 0 2 0 1 0 0 0 3 0 4 1 5 1 6 1 4 2 7 2 5 2 4 3 8 3 9 3 9 0 10 0 4 0 10 0 7 0 4 0 4 4 11 4 8 4 4 0 12 0 13 0 4 0 14 0 15 0 15 0 12 0 4 0 13 0 16 0 4 0 4 5 17 5 18 5 18 6 19 6 4 6 19 0 14 0 4 0 16 0 3 0 4 0 4 0 20 0 21 0 4 0 22 0 23 0 0 7 24 7 22 7 22 0 4 0 0 0 23 0 20 0 4 0 21 0 25 0 4 0 25 0 11 0 4 0 4 0 3 0 0 0 6 0 17 0 4 0 3 8 26 8 1 8 2 0 27 0 0 0 28 9 29 9 30 9 30 9 31 9 28 9 28 9 31 9 0 9 31 9 24 9 0 9 0 9 27 9 28 9 30 9 32 9 31 9 33 10 28 10 27 10 29 10 28 10 34 10 28 10 33 10 35 10 35 10 34 10 28 10 36 10 37 10 35 10 35 10 33 10 36 10 34 10 38 10 29 10 27 10 2 10 33 10 39 11 40 11 41 11 41 11 3 11 39 11 42 12 43 12 23 12 23 13 43 13 44 13 21 14 20 14 44 14 45 15 46 15 25 15 25 16 46 16 47 16 48 17 8 17 11 17 9 18 8 18 48 18 9 19 49 19 50 19 10 20 50 20 51 20 51 21 52 21 5 21 53 22 6 22 5 22 17 23 6 23 53 23 17 24 54 24 55 24 18 25 55 25 56 25 57 26 14 26 19 26 14 27 57 27 58 27 58 28 59 28 12 28 13 29 12 29 59 29 13 30 60 30 61 30 62 31 39 31 63 31 3 32 64 32 63 32 16 33 61 33 64 33 64 34 3 34 16 34 63 35 39 35 3 35 65 36 62 36 66 36 65 37 67 37 68 37 69 38 70 38 68 38 69 27 71 27 72 27 73 39 74 39 75 39 76 40 74 40 73 40 76 41 77 41 78 41 79 42 78 42 80 42 81 22 82 22 83 22 81 43 84 43 85 43 86 20 87 20 85 20 86 19 88 19 89 19 89 44 88 44 90 44 91 45 92 45 93 45 92 16 91 16 94 16 94 15 95 15 96 15 96 14 95 14 97 14 98 13 99 13 97 13 98 12 100 12 101 12 22 46 24 46 102 46 103 47 102 47 31 47 102 48 24 48 31 48 31 49 32 49 103 49 104 50 101 50 103 50 103 51 32 51 104 51 102 50 42 50 22 50 101 52 104 52 98 52 97 13 100 13 98 13 97 14 99 14 96 14 96 53 105 53 94 53 94 54 105 54 92 54 93 17 90 17 91 17 90 18 93 18 89 18 89 55 87 55 86 55 85 56 84 56 86 56 85 21 82 21 81 21 83 57 80 57 81 57 80 23 83 23 79 23 78 24 79 24 76 24 73 25 77 25 76 25 75 26 72 26 73 26 72 58 75 58 69 58 68 28 71 28 69 28 68 29 70 29 65 29 66 30 67 30 65 30 63 33 66 33 62 33 61 36 16 36 13 36 59 37 60 37 13 37 12 38 15 38 58 38 58 58 15 58 14 58 19 39 56 39 57 39 56 40 19 40 18 40 55 41 18 41 17 41 53 42 54 42 17 42 5 57 52 57 53 57 5 43 7 43 51 43 51 56 7 56 10 56 50 55 10 55 9 55 48 44 49 44 9 44 11 45 47 45 48 45 47 54 11 54 25 54 25 53 21 53 45 53 44 14 45 14 21 14 44 13 20 13 23 13 23 52 22 52 42 52 41 11 26 11 3 11 33 59 41 59 106 59 41 59 40 59 106 59 33 59 2 59 1 59 1 59 41 59 33 59 1 59 26 59 41 59 106 59 36 59 33 59 107 60 54 60 53 60 107 61 56 61 55 61 107 62 50 62 49 62 55 63 54 63 107 63 107 64 51 64 50 64 53 63 52 63 107 63 108 63 107 63 45 63 52 63 51 63 107 63 108 65 44 65 43 65 107 66 46 66 45 66 49 63 48 63 107 63 107 67 59 67 58 67 107 68 61 68 60 68 45 63 44 63 108 63 107 69 57 69 56 69 60 63 59 63 107 63 43 70 42 70 108 70 58 71 57 71 107 71 107 72 47 72 46 72 107 73 64 73 61 73 48 63 47 63 107 63 42 74 102 74 108 74 102 59 103 59 109 59 109 59 108 59 102 59 110 75 107 75 111 75 107 76 108 76 112 76 112 77 111 77 107 77 109 75 113 75 112 75 112 75 108 75 109 75 111 75 114 75 110 75 110 9 63 9 64 9 64 9 107 9 110 9 111 63 112 63 34 63 34 63 35 63 111 63 115 59 38 59 113 59 34 59 112 59 113 59 113 59 38 59 34 59 113 59 116 59 115 59 35 9 37 9 114 9 117 9 118 9 114 9 114 9 37 9 117 9 114 9 111 9 35 9 116 78 119 78 120 78 118 79 120 79 121 79 116 0 122 0 119 0 123 0 124 0 78 0 72 80 118 80 125 80 120 0 118 0 116 0 116 0 94 0 126 0 127 81 91 81 90 81 86 82 84 82 128 82 81 0 80 0 129 0 124 0 129 0 80 0 78 0 77 0 123 0 130 83 123 83 73 83 118 84 131 84 125 84 121 0 132 0 118 0 126 0 133 0 116 0 127 85 94 85 91 85 134 86 88 86 86 86 84 0 81 0 135 0 80 87 78 87 124 87 73 88 72 88 130 88 125 89 136 89 72 89 133 0 122 0 116 0 90 90 137 90 127 90 137 0 90 0 88 0 135 91 128 91 84 91 114 92 67 92 66 92 71 93 114 93 118 93 95 94 94 94 116 94 109 95 101 95 100 95 77 96 73 96 123 96 132 0 131 0 118 0 127 97 138 97 94 97 128 0 134 0 86 0 114 98 68 98 67 98 118 99 72 99 71 99 113 100 97 100 95 100 100 0 113 0 109 0 136 101 130 101 72 101 88 102 134 102 137 102 71 0 68 0 114 0 100 103 97 103 113 103 138 0 126 0 94 0 66 0 110 0 114 0 109 104 103 104 101 104 66 105 63 105 110 105 129 0 135 0 81 0 116 106 113 106 95 106 115 10 116 10 118 10 118 10 117 10 115 10 139 107 140 107 120 107 141 108 139 108 119 108 142 109 141 109 122 109 143 110 142 110 133 110 144 111 143 111 126 111 126 112 138 112 144 112 133 110 126 110 143 110 122 113 133 113 142 113 119 108 122 108 141 108 120 114 119 114 139 114 145 115 144 115 138 115 146 116 145 116 127 116 147 117 146 117 137 117 148 118 147 118 134 118 149 119 148 119 128 119 128 120 135 120 149 120 134 118 128 118 148 118 137 121 134 121 147 121 127 116 137 116 146 116 138 122 127 122 145 122 150 123 151 123 136 123 152 124 150 124 125 124 153 125 152 125 131 125 154 126 153 126 132 126 140 127 154 127 121 127 121 128 120 128 140 128 132 126 121 126 154 126 131 129 132 129 153 129 125 124 131 124 152 124 136 130 125 130 150 130 155 131 149 131 135 131 156 132 155 132 129 132 157 133 156 133 124 133 158 134 157 134 123 134 151 135 158 135 130 135 130 136 136 136 151 136 123 134 130 134 158 134 124 137 123 137 157 137 129 132 124 132 156 132 135 138 129 138 155 138 36 63 140 63 117 63 36 63 150 63 152 63 36 139 151 139 150 139 152 63 153 63 36 63 153 63 154 63 36 63 36 140 155 140 156 140 156 141 157 141 36 141 157 142 158 142 36 142 158 63 151 63 36 63 106 63 149 63 155 63 106 63 30 63 149 63 155 143 36 143 106 143 30 63 148 63 149 63 30 144 147 144 148 144 30 145 145 145 146 145 30 63 144 63 145 63 146 63 147 63 30 63 30 63 115 63 142 63 142 63 143 63 30 63 115 146 141 146 142 146 115 147 139 147 141 147 143 63 144 63 30 63 115 63 117 63 140 63 140 148 139 148 115 148 154 63 140 63 36 63 29 63 38 63 115 63 115 63 30 63 29 63 30 149 159 149 104 149 159 63 99 63 98 63 98 63 104 63 159 63 159 150 105 150 96 150 96 63 99 63 159 63 159 151 92 151 105 151 30 63 39 63 159 63 159 152 74 152 76 152 159 63 75 63 74 63 159 63 70 63 69 63 159 63 62 63 65 63 65 63 70 63 159 63 159 63 39 63 62 63 69 63 75 63 159 63 159 153 87 153 89 153 159 154 85 154 87 154 159 63 79 63 83 63 83 155 82 155 159 155 82 63 85 63 159 63 89 156 93 156 159 156 93 63 92 63 159 63 76 63 79 63 159 63 106 157 40 157 39 157 39 63 30 63 106 63 104 158 32 158 30 158 117 63 37 63 36 63 160 0 161 0 162 0 162 0 163 0 160 0 163 9 162 9 164 9 164 9 165 9 163 9 162 159 161 159 166 159 166 160 167 160 162 160 161 10 168 10 166 10 167 10 164 10 162 10 160 161 163 161 169 161 169 162 170 162 160 162 163 75 165 75 169 75 170 75 171 75 160 75 171 59 168 59 161 59 161 59 160 59 171 59 165 63 164 63 167 63 167 63 169 63 165 63 170 63 169 63 167 63 167 63 166 63 170 63 169 9 167 9 172 9 172 9 173 9 169 9 172 10 167 10 174 10 167 163 166 163 175 163 175 10 174 10 167 10 176 10 177 10 175 10 175 10 166 10 176 10 174 10 178 10 172 10 179 75 170 75 180 75 169 75 181 75 180 75 180 75 170 75 169 75 173 75 182 75 181 75 181 75 169 75 173 75 180 75 183 75 179 75 171 63 170 63 166 63 166 63 168 63 171 63 179 59 176 59 166 59 166 59 170 59 179 59 184 164 185 164 186 164 187 165 174 165 188 165 174 0 175 0 189 0 186 0 175 0 184 0 184 166 190 166 191 166 187 167 192 167 190 167 174 168 193 168 188 168 189 0 194 0 174 0 175 169 195 169 196 169 191 0 185 0 184 0 187 170 197 170 192 170 194 0 193 0 174 0 186 171 195 171 175 171 188 0 197 0 187 0 190 0 184 0 187 0 196 0 189 0 175 0 187 9 198 9 178 9 178 9 174 9 187 9 199 10 198 10 187 10 187 10 184 10 199 10 175 0 174 0 181 0 181 0 180 0 175 0 181 9 174 9 178 9 178 9 182 9 181 9 175 10 177 10 178 10 178 10 174 10 175 10 183 75 180 75 181 75 181 75 182 75 183 75 196 172 186 172 185 172 192 173 188 173 193 173 196 174 191 174 190 174 196 175 195 175 186 175 192 176 194 176 189 176 192 177 197 177 188 177 185 178 191 178 196 178 193 179 194 179 192 179 189 0 196 0 192 0 190 0 192 0 196 0 200 180 188 180 197 180 201 181 197 181 192 181 202 182 192 182 190 182 190 183 203 183 202 183 192 184 202 184 201 184 197 185 201 185 200 185 204 186 189 186 194 186 205 187 194 187 193 187 206 188 193 188 188 188 188 189 200 189 206 189 193 190 206 190 205 190 194 191 205 191 204 191 203 192 190 192 191 192 207 193 191 193 185 193 208 194 185 194 186 194 186 195 209 195 208 195 185 196 208 196 207 196 191 197 207 197 203 197 209 198 186 198 195 198 210 199 195 199 196 199 211 200 196 200 189 200 189 201 204 201 211 201 196 202 211 202 210 202 195 203 210 203 209 203 184 59 175 59 177 59 177 59 199 59 184 59 180 59 183 59 177 59 177 59 175 59 180 59 173 63 172 63 178 63 178 63 182 63 173 63 199 204 177 204 209 204 198 63 201 63 200 63 199 205 208 205 207 205 177 63 210 63 209 63 177 63 178 63 204 63 178 63 206 63 205 63 200 63 178 63 198 63 198 63 199 63 203 63 209 63 208 63 199 63 204 63 211 63 177 63 200 63 206 63 178 63 203 206 202 206 198 206 211 63 210 63 177 63 202 63 201 63 198 63 205 63 204 63 178 63 207 63 203 63 199 63 182 63 178 63 177 63 177 63 183 63 182 63 211 63 207 63 208 63 202 63 205 63 206 63 207 63 211 63 204 63 208 63 209 63 211 63 205 63 202 63 203 63 206 63 200 63 202 63 209 63 210 63 211 63 200 63 201 63 202 63 203 63 207 63 205 63 204 63 205 63 207 63 212 207 200 207 201 207 213 208 201 208 202 208 214 209 202 209 203 209 203 209 215 209 214 209 202 210 214 210 213 210 201 211 213 211 212 211 216 212 204 212 205 212 217 213 205 213 206 213 218 214 206 214 200 214 200 215 212 215 218 215 206 216 218 216 217 216 205 212 217 212 216 212 215 217 203 217 207 217 219 218 207 218 208 218 220 219 208 219 209 219 209 220 221 220 220 220 208 221 220 221 219 221 207 217 219 217 215 217 221 222 209 222 210 222 222 223 210 223 211 223 223 224 211 224 204 224 204 224 216 224 223 224 211 225 223 225 222 225 210 226 222 226 221 226 179 63 183 63 177 63 177 63 176 63 179 63 222 63 219 63 220 63 218 227 214 227 215 227 214 63 218 63 212 63 219 228 223 228 216 228 220 63 221 63 222 63 212 63 213 63 214 63 222 63 223 63 219 63 219 63 217 63 218 63 215 63 219 63 218 63 216 63 217 63 219 63</p>
        </triangles>
      </mesh>
    </geometry>
    <geometry id="Patch_Antenna_Modell_002-mesh" name="Patch Antenna Modell.002">
      <mesh>
        <source id="Patch_Antenna_Modell_002-mesh-positions">
          <float_array id="Patch_Antenna_Modell_002-mesh-positions-array" count="156">-24.2 27.975 12.1 -24.2 27.975 11.55 -24.2 -27.975 11.55 -24.2 -27.975 12.1 27.8 -27.975 11.55 27.8 -27.975 12.1 27.8 6.5 11.55 27.8 -6.5 11.55 27.8 27.975 11.55 27.8 -6.5 12.1 27.8 6.5 12.1 27.8 27.975 12.1 36 -6.5 11.55 36 -6.5 12.1 35.45 -3.45 11.55 35.45 3.45 11.55 36 6.5 11.55 36 3.45 11.55 36 -3.45 11.55 36 6.5 12.1 35.45 3.45 12.1 35.45 -3.45 12.1 36 -3.45 12.1 36 3.45 12.1 35.45 3.45 7.7 35.45 0.4330127 9.75 35.45 0.5 10 35.45 -3.45 7.7 35.45 -0.5 10 35.45 0 10.5 35.45 0 9.5 35.45 0.25 9.566987 35.45 -0.25 9.566987 35.45 -0.4330127 10.25 35.45 -0.25 10.43301 35.45 0.4330127 10.25 35.45 0.25 10.43301 35.45 -0.4330127 9.75 36 -3.45 7.7 36 3.45 7.7 36 -0.5 10 36 -0.4330127 9.75 36 -0.25 9.566987 36 0 9.5 36 0 10.5 36 -0.25 10.43301 36 -0.4330127 10.25 36 0.25 9.566987 36 0.4330127 9.75 36 0.5 10 36 0.4330127 10.25 36 0.25 10.43301</float_array>
          <technique_common>
            <accessor source="#Patch_Antenna_Modell_002-mesh-positions-array" count="52" stride="3">
              <param name="X" type="float"/>
              <param name="Y" type="float"/>
              <param name="Z" type="float"/>
            </accessor>
          </technique_common>
        </source>
        <source id="Patch_Antenna_Modell_002-mesh-normals">
          <float_array id="Patch_Antenna_Modell_002-mesh-normals-array" count="87">-1 0 0 0 -1 0 0 0 -1 0 0 -1 0 0 -1 0 0 1 0 0 1 0 0 1 0 1 0 1 0 0 -1.53432e-7 0 -1 -1 6.41793e-6 0 -1 1.3435e-6 0 -1 1.40019e-6 0 -1 -1.40019e-6 0 -1 -6.80116e-6 0 -1 -3.62126e-6 0 -1 3.08524e-6 0 -1 9.06824e-6 0 -1 -2.08439e-5 0 -1 2.08439e-5 0 -1 -4.40482e-6 0 -1 5.69468e-5 0 -1 4.40482e-6 0 -1 2.40684e-5 0 -1 -2.40684e-5 0 1 6.7175e-7 0 1 8.22732e-6 0 1 2.24031e-5 0</float_array>
          <technique_common>
            <accessor source="#Patch_Antenna_Modell_002-mesh-normals-array" count="29" stride="3">
              <param name="X" type="float"/>
              <param name="Y" type="float"/>
              <param name="Z" type="float"/>
            </accessor>
          </technique_common>
        </source>
        <vertices id="Patch_Antenna_Modell_002-mesh-vertices">
          <input semantic="POSITION" source="#Patch_Antenna_Modell_002-mesh-positions"/>
        </vertices>
        <triangles count="94">
          <input semantic="VERTEX" source="#Patch_Antenna_Modell_002-mesh-vertices" offset="0"/>
          <input semantic="NORMAL" source="#Patch_Antenna_Modell_002-mesh-normals" offset="1"/>
          <p>0 0 1 0 2 0 2 0 3 0 0 0 3 1 2 1 4 1 4 1 5 1 3 1 2 2 1 2 6 2 6 3 7 3 2 3 1 4 8 4 6 4 7 4 4 4 2 4 0 5 3 5 9 5 9 6 10 6 0 6 3 7 5 7 9 7 10 7 11 7 0 7 11 8 8 8 1 8 1 8 0 8 11 8 5 9 4 9 7 9 7 9 9 9 5 9 10 9 9 9 7 9 7 9 6 9 10 9 9 1 7 1 12 1 12 1 13 1 9 1 12 4 7 4 14 4 7 10 6 10 15 10 15 4 14 4 7 4 16 4 17 4 15 4 15 4 6 4 16 4 19 7 10 7 20 7 9 7 21 7 20 7 20 7 10 7 9 7 13 7 22 7 21 7 21 7 9 7 13 7 20 7 23 7 19 7 11 9 10 9 6 9 6 9 8 9 11 9 19 8 16 8 6 8 6 8 10 8 19 8 24 11 25 11 26 11 27 12 14 12 28 12 14 0 15 0 29 0 26 0 15 0 24 0 24 13 30 13 31 13 27 14 32 14 30 14 14 15 33 15 28 15 29 0 34 0 14 0 15 16 35 16 36 16 31 0 25 0 24 0 27 17 37 17 32 17 34 0 33 0 14 0 26 18 35 18 15 18 28 0 37 0 27 0 30 0 24 0 27 0 36 0 29 0 15 0 27 1 38 1 18 1 18 1 14 1 27 1 15 0 14 0 21 0 21 0 20 0 15 0 15 4 17 4 18 4 18 4 14 4 15 4 23 7 20 7 21 7 21 7 22 7 23 7 36 19 26 19 25 19 32 20 28 20 33 20 36 21 31 21 30 21 36 22 35 22 26 22 32 23 34 23 29 23 25 24 31 24 36 24 33 25 34 25 32 25 29 0 36 0 32 0 30 0 32 0 36 0 24 8 15 8 17 8 17 8 39 8 24 8 20 8 23 8 17 8 17 8 15 8 20 8 13 9 12 9 18 9 18 9 22 9 13 9 39 26 17 26 49 26 38 9 41 9 40 9 39 27 48 27 47 27 17 9 50 9 49 9 17 9 18 9 44 9 18 9 46 9 45 9 40 9 18 9 38 9 38 9 39 9 43 9 49 9 48 9 39 9 44 9 51 9 17 9 40 9 46 9 18 9 43 28 42 28 38 28 51 9 50 9 17 9 42 9 41 9 38 9 45 9 44 9 18 9 47 9 43 9 39 9 22 9 18 9 17 9 17 9 23 9 22 9 19 9 23 9 17 9 17 9 16 9 19 9</p>
        </triangles>
      </mesh>
    </geometry>
    <geometry id="Patch_Antenna_Modell_003-mesh" name="Patch Antenna Modell.003">
      <mesh>
        <source id="Patch_Antenna_Modell_003-mesh-positions">
          <float_array id="Patch_Antenna_Modell_003-mesh-positions-array" count="33">40.875 -5 0 40.875 5 0 44.375 -5 0 -42.775 42.55 1.6 -42.775 -42.55 1.6 42.775 -42.55 1.6 42.775 42.55 1.6 40.875 5 1.6 40.875 -5 1.6 42.775 -5 1.6 42.775 5 1.6</float_array>
          <technique_common>
            <accessor source="#Patch_Antenna_Modell_003-mesh-positions-array" count="11" stride="3">
              <param name="X" type="float"/>
              <param name="Y" type="float"/>
              <param name="Z" type="float"/>
            </accessor>
          </technique_common>
        </source>
        <source id="Patch_Antenna_Modell_003-mesh-normals">
          <float_array id="Patch_Antenna_Modell_003-mesh-normals-array" count="18">0 0 1 0 0 1 0 0 1 1 0 0 0 1 0 0 -1 0</float_array>
          <technique_common>
            <accessor source="#Patch_Antenna_Modell_003-mesh-normals-array" count="6" stride="3">
              <param name="X" type="float"/>
              <param name="Y" type="float"/>
              <param name="Z" type="float"/>
            </accessor>
          </technique_common>
        </source>
        <vertices id="Patch_Antenna_Modell_003-mesh-vertices">
          <input semantic="POSITION" source="#Patch_Antenna_Modell_003-mesh-positions"/>
        </vertices>
        <triangles count="11">
          <input semantic="VERTEX" source="#Patch_Antenna_Modell_003-mesh-vertices" offset="0"/>
          <input semantic="NORMAL" source="#Patch_Antenna_Modell_003-mesh-normals" offset="1"/>
          <p>6 0 3 0 7 0 3 1 4 1 8 1 8 2 7 2 3 2 5 0 9 0 8 0 8 0 4 0 5 0 7 0 10 0 6 0 7 3 8 3 0 3 0 3 1 3 7 3 0 4 8 4 9 4 9 4 2 4 0 4 10 5 7 5 1 5</p>
        </triangles>
      </mesh>
    </geometry>
    <geometry id="Patch_Antenna_Modell_004-mesh" name="Patch Antenna Modell.004">
      <mesh>
        <source id="Patch_Antenna_Modell_004-mesh-positions">
          <float_array id="Patch_Antenna_Modell_004-mesh-positions-array" count="72">36 -0.5 10 36 -0.4330127 9.75 36 -0.25 9.566987 36 0 9.5 36 0 10.5 36 -0.25 10.43301 36 -0.4330127 10.25 36 0.25 9.566987 36 0.4330127 9.75 36 0.5 10 36 0.4330127 10.25 36 0.25 10.43301 44.375 -0.5 10 44.375 -0.4330127 9.75 44.375 -0.25 9.566987 44.375 0 9.5 44.375 0 10.5 44.375 -0.25 10.43301 44.375 -0.4330127 10.25 44.375 0.25 9.566987 44.375 0.4330127 9.75 44.375 0.5 10 44.375 0.4330127 10.25 44.375 0.25 10.43301</float_array>
          <technique_common>
            <accessor source="#Patch_Antenna_Modell_004-mesh-positions-array" count="24" stride="3">
              <param name="X" type="float"/>
              <param name="Y" type="float"/>
              <param name="Z" type="float"/>
            </accessor>
          </technique_common>
        </source>
        <source id="Patch_Antenna_Modell_004-mesh-normals">
          <float_array id="Patch_Antenna_Modell_004-mesh-normals-array" count="69">0 -0.9659259 -0.258819 0 -0.7071075 -0.7071062 0 -0.2588182 -0.9659261 0 -0.7071074 -0.7071063 0 -0.9659258 -0.2588192 0 -0.2588182 0.9659261 0 -0.7071074 0.7071063 0 -0.9659258 0.2588192 0 -0.9659259 0.258819 0 -0.7071075 0.7071062 0 0.2588182 -0.9659261 0 0.7071074 -0.7071063 0 0.9659258 -0.2588192 0 0.9659259 -0.258819 0 0.7071075 -0.7071062 0 0.9659259 0.258819 0 0.7071075 0.7071062 0 0.2588182 0.9659261 0 0.7071074 0.7071063 0 0.9659258 0.2588192 1 0 0 1 6.01708e-6 0 1 -4.40482e-6 0</float_array>
          <technique_common>
            <accessor source="#Patch_Antenna_Modell_004-mesh-normals-array" count="23" stride="3">
              <param name="X" type="float"/>
              <param name="Y" type="float"/>
              <param name="Z" type="float"/>
            </accessor>
          </technique_common>
        </source>
        <vertices id="Patch_Antenna_Modell_004-mesh-vertices">
          <input semantic="POSITION" source="#Patch_Antenna_Modell_004-mesh-positions"/>
        </vertices>
        <triangles count="34">
          <input semantic="VERTEX" source="#Patch_Antenna_Modell_004-mesh-vertices" offset="0"/>
          <input semantic="NORMAL" source="#Patch_Antenna_Modell_004-mesh-normals" offset="1"/>
          <p>12 0 0 0 1 0 13 1 1 1 2 1 14 2 2 2 3 2 3 2 15 2 14 2 2 3 14 3 13 3 1 4 13 4 12 4 16 5 4 5 5 5 17 6 5 6 6 6 18 7 6 7 0 7 0 8 12 8 18 8 6 9 18 9 17 9 5 5 17 5 16 5 15 10 3 10 7 10 19 11 7 11 8 11 20 12 8 12 9 12 9 13 21 13 20 13 8 14 20 14 19 14 7 10 19 10 15 10 21 15 9 15 10 15 22 16 10 16 11 16 23 17 11 17 4 17 4 17 16 17 23 17 11 18 23 18 22 18 10 19 22 19 21 19 22 20 19 20 20 20 18 21 14 21 15 21 14 20 18 20 12 20 19 22 23 22 16 22 20 20 21 20 22 20 12 20 13 20 14 20 22 20 23 20 19 20 19 20 17 20 18 20 15 20 19 20 18 20 16 20 17 20 19 20</p>
        </triangles>
      </mesh>
    </geometry>
    <geometry id="Patch_Antenna_Modell_005-mesh" name="Patch Antenna Modell.005">
      <mesh>
        <source id="Patch_Antenna_Modell_005-mesh-positions">
          <float_array id="Patch_Antenna_Modell_005-mesh-positions-array" count="12">-42.775 -42.55 14.53408 42.775 -42.55 14.53408 -42.775 -42.55 1.6 42.775 -42.55 1.6</float_array>
          <technique_common>
            <accessor source="#Patch_Antenna_Modell_005-mesh-positions-array" count="4" stride="3">
              <param name="X" type="float"/>
              <param name="Y" type="float"/>
              <param name="Z" type="float"/>
            </accessor>
          </technique_common>
        </source>
        <source id="Patch_Antenna_Modell_005-mesh-normals">
          <float_array id="Patch_Antenna_Modell_005-mesh-normals-array" count="3">0 1 0</float_array>
          <technique_common>
            <accessor source="#Patch_Antenna_Modell_005-mesh-normals-array" count="1" stride="3">
              <param name="X" type="float"/>
              <param name="Y" type="float"/>
              <param name="Z" type="float"/>
            </accessor>
          </technique_common>
        </source>
        <vertices id="Patch_Antenna_Modell_005-mesh-vertices">
          <input semantic="POSITION" source="#Patch_Antenna_Modell_005-mesh-positions"/>
        </vertices>
        <triangles count="2">
          <input semantic="VERTEX" source="#Patch_Antenna_Modell_005-mesh-vertices" offset="0"/>
          <input semantic="NORMAL" source="#Patch_Antenna_Modell_005-mesh-normals" offset="1"/>
          <p>0 0 1 0 3 0 3 0 2 0 0 0</p>
        </triangles>
      </mesh>
    </geometry>
    <geometry id="Patch_Antenna_Modell_006-mesh" name="Patch Antenna Modell.006">
      <mesh>
        <source id="Patch_Antenna_Modell_006-mesh-positions">
          <float_array id="Patch_Antenna_Modell_006-mesh-positions-array" count="12">42.775 42.55 14.53408 -42.775 42.55 14.53408 -42.775 42.55 1.6 42.775 42.55 1.6</float_array>
          <technique_common>
            <accessor source="#Patch_Antenna_Modell_006-mesh-positions-array" count="4" stride="3">
              <param name="X" type="float"/>
              <param name="Y" type="float"/>
              <param name="Z" type="float"/>
            </accessor>
          </technique_common>
        </source>
        <source id="Patch_Antenna_Modell_006-mesh-normals">
          <float_array id="Patch_Antenna_Modell_006-mesh-normals-array" count="3">0 -1 0</float_array>
          <technique_common>
            <accessor source="#Patch_Antenna_Modell_006-mesh-normals-array" count="1" stride="3">
              <param name="X" type="float"/>
              <param name="Y" type="float"/>
              <param name="Z" type="float"/>
            </accessor>
          </technique_common>
        </source>
        <vertices id="Patch_Antenna_Modell_006-mesh-vertices">
          <input semantic="POSITION" source="#Patch_Antenna_Modell_006-mesh-positions"/>
        </vertices>
        <triangles count="2">
          <input semantic="VERTEX" source="#Patch_Antenna_Modell_006-mesh-vertices" offset="0"/>
          <input semantic="NORMAL" source="#Patch_Antenna_Modell_006-mesh-normals" offset="1"/>
          <p>3 0 0 0 1 0 1 0 2 0 3 0</p>
        </triangles>
      </mesh>
    </geometry>
    <geometry id="Patch_Antenna_Modell_007-mesh" name="Patch Antenna Modell.007">
      <mesh>
        <source id="Patch_Antenna_Modell_007-mesh-positions">
          <float_array id="Patch_Antenna_Modell_007-mesh-positions-array" count="48">-44.375 44.15 0 -44.375 -44.15 0 0 -44.15 0 44.375 -44.15 0 0 44.15 0 40.875 -5 0 40.875 5 0 44.375 44.15 0 44.375 5 0 44.375 -5 0 42.775 -5 1.6 42.775 5 1.6 44.375 -5 3.5 42.775 -5 3.5 44.375 5 3.5 42.775 5 3.5</float_array>
          <technique_common>
            <accessor source="#Patch_Antenna_Modell_007-mesh-positions-array" count="16" stride="3">
              <param name="X" type="float"/>
              <param name="Y" type="float"/>
              <param name="Z" type="float"/>
            </accessor>
          </technique_common>
        </source>
        <source id="Patch_Antenna_Modell_007-mesh-normals">
          <float_array id="Patch_Antenna_Modell_007-mesh-normals-array" count="12">0 0 -1 0 1 0 0 -1 0 1 0 0</float_array>
          <technique_common>
            <accessor source="#Patch_Antenna_Modell_007-mesh-normals-array" count="4" stride="3">
              <param name="X" type="float"/>
              <param name="Y" type="float"/>
              <param name="Z" type="float"/>
            </accessor>
          </technique_common>
        </source>
        <vertices id="Patch_Antenna_Modell_007-mesh-vertices">
          <input semantic="POSITION" source="#Patch_Antenna_Modell_007-mesh-positions"/>
        </vertices>
        <triangles count="16">
          <input semantic="VERTEX" source="#Patch_Antenna_Modell_007-mesh-vertices" offset="0"/>
          <input semantic="NORMAL" source="#Patch_Antenna_Modell_007-mesh-normals" offset="1"/>
          <p>4 0 2 0 1 0 3 0 2 0 5 0 2 0 4 0 6 0 6 0 5 0 2 0 7 0 8 0 6 0 6 0 4 0 7 0 5 0 9 0 3 0 1 0 0 0 4 0 12 1 9 1 10 1 10 1 13 1 12 1 6 2 8 2 11 2 14 2 15 2 11 2 11 2 8 2 14 2 12 0 13 0 15 0 15 0 14 0 12 0 3 3 9 3 12 3</p>
        </triangles>
      </mesh>
    </geometry>
  </library_geometries>
  <library_controllers/>
  <library_visual_scenes>
    <visual_scene id="Scene" name="Scene">
      <node id="Camera" name="Camera" type="NODE">
        <matrix sid="transform">0.6859207 -0.3240135 0.6515582 7.481132 0.7276763 0.3054208 -0.6141704 -6.50764 0 0.8953956 0.4452714 5.343665 0 0 0 1</matrix>
        <instance_camera url="#Camera-camera"/>
      </node>
      <node id="Lamp" name="Lamp" type="NODE">
        <matrix sid="transform">-0.2908646 -0.7711008 0.5663932 4.076245 0.9551712 -0.1998834 0.2183912 1.005454 -0.05518906 0.6045247 0.7946723 5.903862 0 0 0 1</matrix>
        <instance_light url="#Lamp-light"/>
      </node>
      <node id="Patch_Antenna_Modell" name="Patch_Antenna_Modell" type="NODE">
        <matrix sid="transform">1 0 0 0 0 1 0 0 0 0 1 0 0 0 0 1</matrix>
        <instance_geometry url="#Patch_Antenna_Modell-mesh" name="Patch_Antenna_Modell"/>
      </node>
      <node id="Patch_Antenna_Modell_001" name="Patch_Antenna_Modell_001" type="NODE">
        <matrix sid="transform">1 0 0 0 0 1 0 0 0 0 1 0 0 0 0 1</matrix>
        <instance_geometry url="#Patch_Antenna_Modell_001-mesh" name="Patch_Antenna_Modell_001"/>
      </node>
      <node id="Patch_Antenna_Modell_002" name="Patch_Antenna_Modell_002" type="NODE">
        <matrix sid="transform">1 0 0 0 0 1 0 0 0 0 1 0 0 0 0 1</matrix>
        <instance_geometry url="#Patch_Antenna_Modell_002-mesh" name="Patch_Antenna_Modell_002"/>
      </node>
      <node id="Patch_Antenna_Modell_003" name="Patch_Antenna_Modell_003" type="NODE">
        <matrix sid="transform">1 0 0 0 0 1 0 0 0 0 1 0 0 0 0 1</matrix>
        <instance_geometry url="#Patch_Antenna_Modell_003-mesh" name="Patch_Antenna_Modell_003"/>
      </node>
      <node id="Patch_Antenna_Modell_004" name="Patch_Antenna_Modell_004" type="NODE">
        <matrix sid="transform">1 0 0 0 0 1 0 0 0 0 1 0 0 0 0 1</matrix>
        <instance_geometry url="#Patch_Antenna_Modell_004-mesh" name="Patch_Antenna_Modell_004"/>
      </node>
      <node id="Patch_Antenna_Modell_005" name="Patch_Antenna_Modell_005" type="NODE">
        <matrix sid="transform">1 0 0 0 0 1 0 0 0 0 1 0 0 0 0 1</matrix>
        <instance_geometry url="#Patch_Antenna_Modell_005-mesh" name="Patch_Antenna_Modell_005"/>
      </node>
      <node id="Patch_Antenna_Modell_006" name="Patch_Antenna_Modell_006" type="NODE">
        <matrix sid="transform">1 0 0 0 0 1 0 0 0 0 1 0 0 0 0 1</matrix>
        <instance_geometry url="#Patch_Antenna_Modell_006-mesh" name="Patch_Antenna_Modell_006"/>
      </node>
      <node id="Patch_Antenna_Modell_007" name="Patch_Antenna_Modell_007" type="NODE">
        <matrix sid="transform">1 0 0 0 0 1 0 0 0 0 1 0 0 0 0 1</matrix>
        <instance_geometry url="#Patch_Antenna_Modell_007-mesh" name="Patch_Antenna_Modell_007"/>
      </node>
    </visual_scene>
  </library_visual_scenes>
  <scene>
    <instance_visual_scene url="#Scene"/>
  </scene>
</COLLADA>