-1.5707963e+00 -3.6681000e+01
-1.5533430e+00 -3.5138000e+01
-1.5358897e+00 -3.6207000e+01
-1.5184364e+00 -3.6135000e+01
-1.5009832e+00 -3.6207000e+01
-1.4835299e+00 -3.7017000e+01
-1.4660766e+00 -3.5593000e+01
-1.4486233e+00 -3.6636000e+01
-1.4311700e+00 -3.7609000e+01
-1.4137167e+00 -3.6329000e+01
-1.3962634e+00 -3.7100000e+01
-1.3788101e+00 -3.5896000e+01
-1.3613568e+00 -3.6245000e+01
-1.3439035e+00 -3.5108000e+01
-1.3264502e+00 -3.7284000e+01
-1.3089969e+00 -3.2803000e+01
-1.2915436e+00 -3.5632000e+01
-1.2740904e+00 -3.7837000e+01
-1.2566371e+00 -3.8087000e+01
-1.2391838e+00 -3.6114000e+01
-1.2217305e+00 -3.2289000e+01
-1.2042772e+00 -3.0649000e+01
-1.1868239e+00 -2.8425000e+01
-1.1693706e+00 -2.7512000e+01
-1.1519173e+00 -2.6756000e+01
-1.1344640e+00 -2.5314000e+01
-1.1170107e+00 -2.5629000e+01
-1.0995574e+00 -2.5287000e+01
-1.0821041e+00 -2.4756000e+01
-1.0646508e+00 -2.3879000e+01
-1.0471976e+00 -2.4739000e+01
-1.0297443e+00 -2.5903000e+01
-1.0122910e+00 -2.5114000e+01
-9.9483767e-01 -2.7446000e+01
-9.7738438e-01 -2.8813000e+01
-9.5993109e-01 -2.9766000e+01
-9.4247780e-01 -3.1468000e+01
-9.2502450e-01 -3.0535000e+01
-9.0757121e-01 -2.9825000e+01
-8.9011792e-01 -2.5948000e+01
-8.7266463e-01 -2.3365000e+01
-8.5521133e-01 -2.1207000e+01
-8.3775804e-01 -1.9494000e+01
-8.2030475e-01 -1.7748000e+01
-8.0285146e-01 -1.6294000e+01
-7.8539816e-01 -1.5490000e+01
-7.6794487e-01 -1.5363000e+01
-7.5049158e-01 -1.5115000e+01
-7.3303829e-01 -1.5797000e+01
-7.1558499e-01 -1.6312000e+01
-6.9813170e-01 -1.7226000e+01
-6.8067841e-01 -1.8400000e+01
-6.6322512e-01 -2.0157000e+01
-6.4577182e-01 -2.2719000e+01
-6.2831853e-01 -2.5423000e+01
-6.1086524e-01 -3.0106000e+01
-5.9341195e-01 -3.1090000e+01
-5.7595865e-01 -2.7203000e+01
-5.5850536e-01 -2.3969000e+01
-5.4105207e-01 -2.1977000e+01
-5.2359878e-01 -2.0447000e+01
-5.0614548e-01 -1.8796000e+01
-4.8869219e-01 -1.7147000e+01
-4.7123890e-01 -1.5601000e+01
-4.5378561e-01 -1.4900000e+01
-4.3633231e-01 -1.4020000e+01
-4.1887902e-01 -1.3701000e+01
-4.0142573e-01 -1.3618000e+01
-3.8397244e-01 -1.3684000e+01
-3.6651914e-01 -1.3840000e+01
-3.4906585e-01 -1.4430000e+01
-3.3161256e-01 -1.5020000e+01
-3.1415927e-01 -1.6190000e+01
-2.9670597e-01 -1.6988000e+01
-2.7925268e-01 -1.8634000e+01
-2.6179939e-01 -2.0593000e+01
-2.4434610e-01 -2.4673000e+01
-2.2689280e-01 -3.6408000e+01
-2.0943951e-01 -2.4245000e+01
-1.9198622e-01 -1.7784000e+01
-1.7453293e-01 -1.4597000e+01
-1.5707963e-01 -1.2693000e+01
-1.3962634e-01 -1.1311000e+01
-1.2217305e-01 -1.0844000e+01
-1.0471976e-01 -1.1169000e+01
-8.7266463e-02 -1.2301000e+01
-6.9813170e-02 -1.3940000e+01
-5.2359878e-02 -1.6397000e+01
-3.4906585e-02 -2.0773000e+01
-1.7453293e-02 -2.7574000e+01
 0.0000000e+00 -2.3358000e+01
 1.7453293e-02 -1.8601000e+01
 3.4906585e-02 -1.5956000e+01
 5.2359878e-02 -1.4429000e+01
 6.9813170e-02 -1.3520000e+01
 8.7266463e-02 -1.3019000e+01
 1.0471976e-01 -1.2099000e+01
 1.2217305e-01 -1.1600000e+01
 1.3962634e-01 -1.1760000e+01
 1.5707963e-01 -1.1584000e+01
 1.7453293e-01 -1.1953000e+01
 1.9198622e-01 -1.3120000e+01
 2.0943951e-01 -1.4779000e+01
 2.2689280e-01 -1.7262000e+01
 2.4434610e-01 -1.9446000e+01
 2.6179939e-01 -2.1779000e+01
 2.7925268e-01 -2.6918000e+01
 2.9670597e-01 -3.4431000e+01
 3.1415927e-01 -2.8322000e+01
 3.3161256e-01 -2.2244000e+01
 3.4906585e-01 -1.8568000e+01
 3.6651914e-01 -1.5782000e+01
 3.8397244e-01 -1.4098000e+01
 4.0142573e-01 -1.2688000e+01
 4.1887902e-01 -1.1940000e+01
 4.3633231e-01 -1.2026000e+01
 4.5378561e-01 -1.2317000e+01
 4.7123890e-01 -1.3668000e+01
 4.8869219e-01 -1.5572000e+01
 5.0614548e-01 -1.8656000e+01
 5.2359878e-01 -2.2962000e+01
 5.4105207e-01 -2.6004000e+01
 5.5850536e-01 -2.2146000e+01
 5.7595865e-01 -1.9155000e+01
 5.9341195e-01 -1.6990000e+01
 6.1086524e-01 -1.5976000e+01
 6.2831853e-01 -1.5294000e+01
 6.4577182e-01 -1.5077000e+01
 6.6322512e-01 -1.5183000e+01
 6.8067841e-01 -1.5413000e+01
 6.9813170e-01 -1.5621000e+01
 7.1558499e-01 -1.5709000e+01
 7.3303829e-01 -1.6195000e+01
 7.5049158e-01 -1.6267000e+01
 7.6794487e-01 -1.6131000e+01
 7.8539816e-01 -1.6665000e+01
 8.0285146e-01 -1.7797000e+01
 8.2030475e-01 -1.8760000e+01
 8.3775804e-01 -1.9631000e+01
 8.5521133e-01 -2.1562000e+01
 8.7266463e-01 -2.3571000e+01
 8.9011792e-01 -2.5749000e+01
 9.0757121e-01 -3.0997000e+01
 9.2502450e-01 -3.4779000e+01
 9.4247780e-01 -3.5892000e+01
 9.5993109e-01 -3.1283000e+01
 9.7738438e-01 -2.9282000e+01
 9.9483767e-01 -2.8969000e+01
 1.0122910e+00 -2.8948000e+01
 1.0297443e+00 -2.8245000e+01
 1.0471976e+00 -2.9803000e+01
 1.0646508e+00 -3.1056000e+01
 1.0821041e+00 -3.5057000e+01
 1.0995574e+00 -3.5599000e+01
 1.1170107e+00 -3.3930000e+01
 1.1344640e+00 -3.0389000e+01
 1.1519173e+00 -2.8991000e+01
 1.1693706e+00 -2.8250000e+01
 1.1868239e+00 -2.7075000e+01
 1.2042772e+00 -2.7174000e+01
 1.2217305e+00 -2.6418000e+01
 1.2391838e+00 -2.6701000e+01
 1.2566371e+00 -2.6534000e+01
 1.2740904e+00 -2.6425000e+01
 1.2915436e+00 -2.7392000e+01
 1.3089969e+00 -2.7487000e+01
 1.3264502e+00 -2.8174000e+01
 1.3439035e+00 -2.7602000e+01
 1.3613568e+00 -2.8084000e+01
 1.3788101e+00 -2.8554000e+01
 1.3962634e+00 -3.1607000e+01
 1.4137167e+00 -3.0961000e+01
 1.4311700e+00 -3.0537000e+01
 1.4486233e+00 -3.1933000e+01
 1.4660766e+00 -3.4388000e+01
 1.4835299e+00 -3.3700000e+01
 1.5009832e+00 -3.6855000e+01
 1.5184364e+00 -3.7574000e+01
 1.5358897e+00 -3.8591000e+01
 1.5533430e+00 -3.9879000e+01
 1.5707963e+00 -4.3771000e+01
